{
  "chain_id": "NetXdQprcVkpaWU",
  "hash": "BKx9tzYxQ856Rqq4MmSk5J9md5WrLTKjXQri42zuTT75FQ61v4z",
  "header": {
    "context": "CoVJCzPHAiu2aTCv5oNBV9ZMruEdLoGYGmMun349Wiu5uxmZY7Yw",
    "fitness": [
      "01",
      "000000000008a61d"
    ],
    "level": 1222173,
    "operations_hash": "LLoaZHxHNh2xchpu1aWUR3TctAsu3B9iUkYXotKFgGtbHvRxL1D5x",
    "predecessor": "BLCrkRNyHsVqifmEfGxs7xKZjQzu9LjJeifpsYV7VCvKbNG2Ub1",
    "priority": 0,
    "proof_of_work_nonce": "e69b63f11f280600",
    "proto": 7,
    "signature": "sigaH5s6XNdqkBRVWjxQb2DpcRtCgHx9Hg3wxkKwqnQGUCZmRSBniX5kQCtf5zLrLo2Spf3kQkh3DaupwHNMU2M6UwU47KeH",
    "timestamp": "2020-11-19T12:20:50Z",
    "validation_pass": 4
  },
  "metadata": {
    "baker": "tz1SYq214SCBy9naR6cvycQsYcUGpBqQAE8d",
    "balance_updates": [
      {
        "change": "-512000000",
        "contract": "tz1SYq214SCBy9naR6cvycQsYcUGpBqQAE8d",
        "kind": "contract"
      },
      {
        "category": "deposits",
        "change": "512000000",
        "cycle": 298,
        "delegate": "tz1SYq214SCBy9naR6cvycQsYcUGpBqQAE8d",
        "kind": "freezer"
      },
      {
        "category": "rewards",
        "change": "40000000",
        "cycle": 298,
        "delegate": "tz1SYq214SCBy9naR6cvycQsYcUGpBqQAE8d",
        "kind": "freezer"
      }
    ],
    "consumed_gas": "27830093",
    "deactivated": [],
    "level": {
      "cycle": 298,
      "cycle_position": 1564,
      "expected_commitment": false,
      "level": 1222173,
      "level_position": 1222172,
      "voting_period": 37,
      "voting_period_position": 9756
    },
    "max_block_header_length": 238,
    "max_operation_data_length": 16384,
    "max_operation_list_length": [
      {
        "max_op": 32,
        "max_size": 32768
      },
      {
        "max_size": 32768
      },
      {
        "max_op": 132,
        "max_size": 135168
      },
      {
        "max_size": 524288
      }
    ],
    "max_operations_ttl": 60,
    "next_protocol": "PsDELPH1Kxsxt8f9eWbxQeRxkjfbxoqM52jvs5Y5fBxWWh4ifpo",
    "nonce_hash": null,
    "protocol": "PsDELPH1Kxsxt8f9eWbxQeRxkjfbxoqM52jvs5Y5fBxWWh4ifpo",
    "test_chain_status": {
      "status": "not_running"
    },
    "voting_period_kind": "proposal"
  },
  "operations": [
    [
      {
        "branch": "BLCrkRNyHsVqifmEfGxs7xKZjQzu9LjJeifpsYV7VCvKbNG2Ub1",
        "chain_id": "NetXdQprcVkpaWU",
        "contents": [
          {
            "kind": "endorsement",
            "level": 1222172,
            "metadata": {
              "balance_updates": [
                {
                  "change": "-64000000",
                  "contract": "tz1S8MNvuFEUsWgjHvi3AxibRBf388NhT1q2",
                  "kind": "contract"
                },
                {
                  "category": "deposits",
                  "change": "64000000",
                  "cycle": 298,
                  "delegate": "tz1S8MNvuFEUsWgjHvi3AxibRBf388NhT1q2",
                  "kind": "freezer"
                },
                {
                  "category": "rewards",
                  "change": "1250000",
                  "cycle": 298,
                  "delegate": "tz1S8MNvuFEUsWgjHvi3AxibRBf388NhT1q2",
                  "kind": "freezer"
                }
              ],
              "delegate": "tz1S8MNvuFEUsWgjHvi3AxibRBf388NhT1q2",
              "slots": [
                3
              ]
            }
          }
        ],
        "hash": "ooWRdkRXjZi7oVaXHFv7v9kXp8T3h5Z6qyiYi3hmVgYDGiFchL9",
        "protocol": "PsDELPH1Kxsxt8f9eWbxQeRxkjfbxoqM52jvs5Y5fBxWWh4ifpo",
        "signature": "sigYfVZ8dBiczU9Era9Lzzdu9vpjTCsKKG3FeMbtVjEuMpQGnhje4p1K7WEejFqdYL2eKRWmab1iGSDhh4oBtkbbo9EMdGCF"
      },
      {
        "branch": "BLCrkRNyHsVqifmEfGxs7xKZjQzu9LjJeifpsYV7VCvKbNG2Ub1",
        "chain_id": "NetXdQprcVkpaWU",
        "contents": [
          {
            "kind": "endorsement",
            "level": 1222172,
            "metadata": {
              "balance_updates": [
                {
                  "change": "-192000000",
                  "contract": "tz1T7duV5gZWSTq4YpBGbXNLTfznCLDrFxvs",
                  "kind": "contract"
                },
                {
                  "category": "deposits",
                  "change": "192000000",
                  "cycle": 298,
                  "delegate": "tz1T7duV5gZWSTq4YpBGbXNLTfznCLDrFxvs",
                  "kind": "freezer"
                },
                {
                  "category": "rewards",
                  "change": "3750000",
                  "cycle": 298,
                  "delegate": "tz1T7duV5gZWSTq4YpBGbXNLTfznCLDrFxvs",
                  "kind": "freezer"
                }
              ],
              "delegate": "tz1T7duV5gZWSTq4YpBGbXNLTfznCLDrFxvs",
              "slots": [
                31,
                14,
                0
              ]
            }
          }
        ],
        "hash": "ooL5JozDXBqydaCy5sjc2rZzut4rEusraDH2GrdfGJzqPZTwhfb",
        "protocol": "PsDELPH1Kxsxt8f9eWbxQeRxkjfbxoqM52jvs5Y5fBxWWh4ifpo",
        "signature": "sigfcPgkSKqzMGpc1jjHkr8tiQNtQWPU6oSGbpnmVHawGBhG4hbTAPov1y88PkjM39RkRcWEYqr8ofSSmGzSmZibkzhp7Cfu"
      },
      {
        "branch": "BLCrkRNyHsVqifmEfGxs7xKZjQzu9LjJeifpsYV7VCvKbNG2Ub1",
        "chain_id": "NetXdQprcVkpaWU",
        "contents": [
          {
            "kind": "endorsement",
            "level": 1222172,
            "metadata": {
              "balance_updates": [
                {
                  "change": "-64000000",
                  "contract": "tz3bTdwZinP8U1JmSweNzVKhmwafqWmFWRfk",
                  "kind": "contract"
                },
                {
                  "category": "deposits",
                  "change": "64000000",
                  "cycle": 298,
                  "delegate": "tz3bTdwZinP8U1JmSweNzVKhmwafqWmFWRfk",
                  "kind": "freezer"
                },
                {
                  "category": "rewards",
                  "change": "1250000",
                  "cycle": 298,
                  "delegate": "tz3bTdwZinP8U1JmSweNzVKhmwafqWmFWRfk",
                  "kind": "freezer"
                }
              ],
              "delegate": "tz3bTdwZinP8U1JmSweNzVKhmwafqWmFWRfk",
              "slots": [
                8
              ]
            }
          }
        ],
        "hash": "opRZfpLunhmQNmS1AjNpBAf1KzcjYSghXcb8Ua66hgtAkt4ihmP",
        "protocol": "PsDELPH1Kxsxt8f9eWbxQeRxkjfbxoqM52jvs5Y5fBxWWh4ifpo",
        "signature": "sigwDghYX9Tfs1fi69P19QsAQKR6GkQ8V1Ho5jnRg2ZGwhCNMhbr4SmZvQBx5v1kA9cDrnp5FfviRBmh6JvRCARpq8DAE2Zo"
      },
      {
        "branch": "BLCrkRNyHsVqifmEfGxs7xKZjQzu9LjJeifpsYV7VCvKbNG2Ub1",
        "chain_id": "NetXdQprcVkpaWU",
        "contents": [
          {
            "kind": "endorsement",
            "level": 1222172,
            "metadata": {
              "balance_updates": [
                {
                  "change": "-128000000",
                  "contract": "tz2FCNBrERXtaTtNX6iimR1UJ5JSDxvdHM93",
                  "kind": "contract"
                },
                {
                  "category": "deposits",
                  "change": "128000000",
                  "cycle": 298,
                  "delegate": "tz2FCNBrERXtaTtNX6iimR1UJ5JSDxvdHM93",
                  "kind": "freezer"
                },
                {
                  "category": "rewards",
                  "change": "2500000",
                  "cycle": 298,
                  "delegate": "tz2FCNBrERXtaTtNX6iimR1UJ5JSDxvdHM93",
                  "kind": "freezer"
                }
              ],
              "delegate": "tz2FCNBrERXtaTtNX6iimR1UJ5JSDxvdHM93",
              "slots": [
                12,
                4
              ]
            }
          }
        ],
        "hash": "opDqGhZCKfq2HtQ5XUHt6Vqb7DbeJojWBbQmdkPsTifmXu9c2dF",
        "protocol": "PsDELPH1Kxsxt8f9eWbxQeRxkjfbxoqM52jvs5Y5fBxWWh4ifpo",
        "signature": "sigid626jyPXfXLjMaqDkMCTxKqVMDSKgbmKLCSMmeqdEVK7PiNyKhAApUTM3j7Xx32BtgBWte9SskFzNBKoihVCwBix3baW"
      },
      {
        "branch": "BLCrkRNyHsVqifmEfGxs7xKZjQzu9LjJeifpsYV7VCvKbNG2Ub1",
        "chain_id": "NetXdQprcVkpaWU",
        "contents": [
          {
            "kind": "endorsement",
            "level": 1222172,
            "metadata": {
              "balance_updates": [
                {
                  "change": "-64000000",
                  "contract": "tz3VEZ4k6a4Wx42iyev6i2aVAptTRLEAivNN",
                  "kind": "contract"
                },
                {
                  "category": "deposits",
                  "change": "64000000",
                  "cycle": 298,
                  "delegate": "tz3VEZ4k6a4Wx42iyev6i2aVAptTRLEAivNN",
                  "kind": "freezer"
                },
                {
                  "category": "rewards",
                  "change": "1250000",
                  "cycle": 298,
                  "delegate": "tz3VEZ4k6a4Wx42iyev6i2aVAptTRLEAivNN",
                  "kind": "freezer"
                }
              ],
              "delegate": "tz3VEZ4k6a4Wx42iyev6i2aVAptTRLEAivNN",
              "slots": [
                10
              ]
            }
          }
        ],
        "hash": "opE8AoSwCFK1xaH5oU9i3VTuQ48itSniEJfYCHH1j9f3zbar9YQ",
        "protocol": "PsDELPH1Kxsxt8f9eWbxQeRxkjfbxoqM52jvs5Y5fBxWWh4ifpo",
        "signature": "sigfD7giFwN4umnuGUvccqFgEPUoEJH2RATmkYi2Gdu137DfC8TQ8QDLDsTqhm6G9VwYMyt94FHaCA3TYPqA19CV4Xk1MSgp"
      },
      {
        "branch": "BLCrkRNyHsVqifmEfGxs7xKZjQzu9LjJeifpsYV7VCvKbNG2Ub1",
        "chain_id": "NetXdQprcVkpaWU",
        "contents": [
          {
            "kind": "endorsement",
            "level": 1222172,
            "metadata": {
              "balance_updates": [
                {
                  "change": "-64000000",
                  "contract": "tz1Vc9XAD7iphycJoRwE1Nxx5krB9C7XyBu5",
                  "kind": "contract"
                },
                {
                  "category": "deposits",
                  "change": "64000000",
                  "cycle": 298,
                  "delegate": "tz1Vc9XAD7iphycJoRwE1Nxx5krB9C7XyBu5",
                  "kind": "freezer"
                },
                {
                  "category": "rewards",
                  "change": "1250000",
                  "cycle": 298,
                  "delegate": "tz1Vc9XAD7iphycJoRwE1Nxx5krB9C7XyBu5",
                  "kind": "freezer"
                }
              ],
              "delegate": "tz1Vc9XAD7iphycJoRwE1Nxx5krB9C7XyBu5",
              "slots": [
                21
              ]
            }
          }
        ],
        "hash": "ooby9TYBTcKtf2KuW5t5URtBhkU5qTt2aUn8Ami1PH54QdJSPYm",
        "protocol": "PsDELPH1Kxsxt8f9eWbxQeRxkjfbxoqM52jvs5Y5fBxWWh4ifpo",
        "signature": "sigXS3kYxn2DGR2c69V1JRJCnwjwQ3weAVDFma9oLnF1YxPtsFWwP5gHZ2Lvw33Crmq9eUB48jkF6jDaTPzUupqKjd1AuzNu"
      },
      {
        "branch": "BLCrkRNyHsVqifmEfGxs7xKZjQzu9LjJeifpsYV7VCvKbNG2Ub1",
        "chain_id": "NetXdQprcVkpaWU",
        "contents": [
          {
            "kind": "endorsement",
            "level": 1222172,
            "metadata": {
              "balance_updates": [
                {
                  "change": "-192000000",
                  "contract": "tz3RB4aoyjov4KEVRbuhvQ1CKJgBJMWhaeB8",
                  "kind": "contract"
                },
                {
                  "category": "deposits",
                  "change": "192000000",
                  "cycle": 298,
                  "delegate": "tz3RB4aoyjov4KEVRbuhvQ1CKJgBJMWhaeB8",
                  "kind": "freezer"
                },
                {
                  "category": "rewards",
                  "change": "3750000",
                  "cycle": 298,
                  "delegate": "tz3RB4aoyjov4KEVRbuhvQ1CKJgBJMWhaeB8",
                  "kind": "freezer"
                }
              ],
              "delegate": "tz3RB4aoyjov4KEVRbuhvQ1CKJgBJMWhaeB8",
              "slots": [
                30,
                16,
                15
              ]
            }
          }
        ],
        "hash": "op8bNp9sWNFQUcZZ636hPUsyE1RCw88LzgNPGPFkbW4T9XkT2Wz",
        "protocol": "PsDELPH1Kxsxt8f9eWbxQeRxkjfbxoqM52jvs5Y5fBxWWh4ifpo",
        "signature": "sigvksg248pFbsTydmyU843nc1sSYiwSKPYTxL2wgs4BJKXnpfrKqtp8bHzpJKAAh5z2veZWGDVtFwHSU5w2hDTRqDmLecPj"
      },
      {
        "branch": "BLCrkRNyHsVqifmEfGxs7xKZjQzu9LjJeifpsYV7VCvKbNG2Ub1",
        "chain_id": "NetXdQprcVkpaWU",
        "contents": [
          {
            "kind": "endorsement",
            "level": 1222172,
            "metadata": {
              "balance_updates": [
                {
                  "change": "-64000000",
                  "contract": "tz1aRoaRhSpRYvFdyvgWLL6TGyRoGF51wDjM",
                  "kind": "contract"
                },
                {
                  "category": "deposits",
                  "change": "64000000",
                  "cycle": 298,
                  "delegate": "tz1aRoaRhSpRYvFdyvgWLL6TGyRoGF51wDjM",
                  "kind": "freezer"
                },
                {
                  "category": "rewards",
                  "change": "1250000",
                  "cycle": 298,
                  "delegate": "tz1aRoaRhSpRYvFdyvgWLL6TGyRoGF51wDjM",
                  "kind": "freezer"
                }
              ],
              "delegate": "tz1aRoaRhSpRYvFdyvgWLL6TGyRoGF51wDjM",
              "slots": [
                11
              ]
            }
          }
        ],
        "hash": "oocbFEApPeH8YDtBGDWy7DaB8hFy8YJDT7ooVGkFhnMgWrYzKX1",
        "protocol": "PsDELPH1Kxsxt8f9eWbxQeRxkjfbxoqM52jvs5Y5fBxWWh4ifpo",
        "signature": "sigZDjQMkwax1CSmHf52iHxJWrF7sYYeJG6cm7aTS1r3dD7VKvjwM48gaivEboH2ij6NcTDsg6i4Y7aBHEys3b8r9CF5j19Z"
      },
      {
        "branch": "BLCrkRNyHsVqifmEfGxs7xKZjQzu9LjJeifpsYV7VCvKbNG2Ub1",
        "chain_id": "NetXdQprcVkpaWU",
        "contents": [
          {
            "kind": "endorsement",
            "level": 1222172,
            "metadata": {
              "balance_updates": [
                {
                  "change": "-64000000",
                  "contract": "tz1d6Fx42mYgVFnHUW8T8A7WBfJ6nD9pVok8",
                  "kind": "contract"
                },
                {
                  "category": "deposits",
                  "change": "64000000",
                  "cycle": 298,
                  "delegate": "tz1d6Fx42mYgVFnHUW8T8A7WBfJ6nD9pVok8",
                  "kind": "freezer"
                },
                {
                  "category": "rewards",
                  "change": "1250000",
                  "cycle": 298,
                  "delegate": "tz1d6Fx42mYgVFnHUW8T8A7WBfJ6nD9pVok8",
                  "kind": "freezer"
                }
              ],
              "delegate": "tz1d6Fx42mYgVFnHUW8T8A7WBfJ6nD9pVok8",
              "slots": [
                2
              ]
            }
          }
        ],
        "hash": "op2XejGXdWFbVed5haV9wB4b1CtVNYG45sLVvPFyNE5fys95Rsn",
        "protocol": "PsDELPH1Kxsxt8f9eWbxQeRxkjfbxoqM52jvs5Y5fBxWWh4ifpo",
        "signature": "signwscqWm9U9uYsYLJ86txCXbTjLzqBjR2cDG7HyNRMF1ij1N9mR7nogmrQQGmie1YGybz68mLkaX4tUvtwkfERBA3F9Qu5"
      },
      {
        "branch": "BLCrkRNyHsVqifmEfGxs7xKZjQzu9LjJeifpsYV7VCvKbNG2Ub1",
        "chain_id": "NetXdQprcVkpaWU",
        "contents": [
          {
            "kind": "endorsement",
            "level": 1222172,
            "metadata": {
              "balance_updates": [
                {
                  "change": "-192000000",
                  "contract": "tz3bvNMQ95vfAYtG8193ymshqjSvmxiCUuR5",
                  "kind": "contract"
                },
                {
                  "category": "deposits",
                  "change": "192000000",
                  "cycle": 298,
                  "delegate": "tz3bvNMQ95vfAYtG8193ymshqjSvmxiCUuR5",
                  "kind": "freezer"
                },
                {
                  "category": "rewards",
                  "change": "3750000",
                  "cycle": 298,
                  "delegate": "tz3bvNMQ95vfAYtG8193ymshqjSvmxiCUuR5",
                  "kind": "freezer"
                }
              ],
              "delegate": "tz3bvNMQ95vfAYtG8193ymshqjSvmxiCUuR5",
              "slots": [
                18,
                9,
                7
              ]
            }
          }
        ],
        "hash": "ones8jG4KN72oqbo3qTzpi6DJa6wrbUTPhU5kariZAUqCVGSDMP",
        "protocol": "PsDELPH1Kxsxt8f9eWbxQeRxkjfbxoqM52jvs5Y5fBxWWh4ifpo",
        "signature": "sigpEEyr3jE2ENCDzba8T3fLd6hWu7vRgiwVbJsRzbS72wbnLWTPc714C7dWzdnQa1KDEzgervwe6Q6sNheAsb6RGPoDx1Mz"
      },
      {
        "branch": "BLCrkRNyHsVqifmEfGxs7xKZjQzu9LjJeifpsYV7VCvKbNG2Ub1",
        "chain_id": "NetXdQprcVkpaWU",
        "contents": [
          {
            "kind": "endorsement",
            "level": 1222172,
            "metadata": {
              "balance_updates": [
                {
                  "change": "-128000000",
                  "contract": "tz1gfArv665EUkSg2ojMBzcbfwuPxAvqPvjo",
                  "kind": "contract"
                },
                {
                  "category": "deposits",
                  "change": "128000000",
                  "cycle": 298,
                  "delegate": "tz1gfArv665EUkSg2ojMBzcbfwuPxAvqPvjo",
                  "kind": "freezer"
                },
                {
                  "category": "rewards",
                  "change": "2500000",
                  "cycle": 298,
                  "delegate": "tz1gfArv665EUkSg2ojMBzcbfwuPxAvqPvjo",
                  "kind": "freezer"
                }
              ],
              "delegate": "tz1gfArv665EUkSg2ojMBzcbfwuPxAvqPvjo",
              "slots": [
                25,
                22
              ]
            }
          }
        ],
        "hash": "oofAHPcSRp38kneZyrf2i11vdSZjkxzFa5gxMvohdo1mcZXaZ6v",
        "protocol": "PsDELPH1Kxsxt8f9eWbxQeRxkjfbxoqM52jvs5Y5fBxWWh4ifpo",
        "signature": "signVLasbAvwYzoTW5BmVvurs1WKx5a5BdBYcRGi37iskqRLnG58rfj5wLCPQByRLyQz7Yn5MABiR7bn9YGHSod8pwg3cVK2"
      },
      {
        "branch": "BLCrkRNyHsVqifmEfGxs7xKZjQzu9LjJeifpsYV7VCvKbNG2Ub1",
        "chain_id": "NetXdQprcVkpaWU",
        "contents": [
          {
            "kind": "endorsement",
            "level": 1222172,
            "metadata": {
              "balance_updates": [
                {
                  "change": "-128000000",
                  "contract": "tz1irJKkXS2DBWkU1NnmFQx1c1L7pbGg4yhk",
                  "kind": "contract"
                },
                {
                  "category": "deposits",
                  "change": "128000000",
                  "cycle": 298,
                  "delegate": "tz1irJKkXS2DBWkU1NnmFQx1c1L7pbGg4yhk",
                  "kind": "freezer"
                },
                {
                  "category": "rewards",
                  "change": "2500000",
                  "cycle": 298,
                  "delegate": "tz1irJKkXS2DBWkU1NnmFQx1c1L7pbGg4yhk",
                  "kind": "freezer"
                }
              ],
              "delegate": "tz1irJKkXS2DBWkU1NnmFQx1c1L7pbGg4yhk",
              "slots": [
                23,
                19
              ]
            }
          }
        ],
        "hash": "oormVLD8YoxU8t9dwDU4odCkg355tFoQKVeuYUJbw7JcLh8jsyb",
        "protocol": "PsDELPH1Kxsxt8f9eWbxQeRxkjfbxoqM52jvs5Y5fBxWWh4ifpo",
        "signature": "sigvrUzbw4a8rzsFEHVbbGBRjJwrrpzYFgFbJinqsML1FBYoi75YT1hD1MCWzgHSiXHeFBodnvj7sq36RZSF1p57VU3ws6gt"
      },
      {
        "branch": "BLCrkRNyHsVqifmEfGxs7xKZjQzu9LjJeifpsYV7VCvKbNG2Ub1",
        "chain_id": "NetXdQprcVkpaWU",
        "contents": [
          {
            "kind": "endorsement",
            "level": 1222172,
            "metadata": {
              "balance_updates": [
                {
                  "change": "-64000000",
                  "contract": "tz1STeamwbp68THcny9zk3LsbG3H36DMvbRK",
                  "kind": "contract"
                },
                {
                  "category": "deposits",
                  "change": "64000000",
                  "cycle": 298,
                  "delegate": "tz1STeamwbp68THcny9zk3LsbG3H36DMvbRK",
                  "kind": "freezer"
                },
                {
                  "category": "rewards",
                  "change": "1250000",
                  "cycle": 298,
                  "delegate": "tz1STeamwbp68THcny9zk3LsbG3H36DMvbRK",
                  "kind": "freezer"
                }
              ],
              "delegate": "tz1STeamwbp68THcny9zk3LsbG3H36DMvbRK",
              "slots": [
                5
              ]
            }
          }
        ],
        "hash": "oo6AqQ1jMMcWYeMkVYDXdfkwmzBBAR9NBajLhdTBkguzcykNMRY",
        "protocol": "PsDELPH1Kxsxt8f9eWbxQeRxkjfbxoqM52jvs5Y5fBxWWh4ifpo",
        "signature": "sigQShM5N8AKoyd16n7uDjZ1kdeBKJ8wZJDZH58QkEAFqPnZY3KqpZPuy3PaHxHbJit36AZejAPJKCsETwxmZiUKoYC4fHjH"
      },
      {
        "branch": "BLCrkRNyHsVqifmEfGxs7xKZjQzu9LjJeifpsYV7VCvKbNG2Ub1",
        "chain_id": "NetXdQprcVkpaWU",
        "contents": [
          {
            "kind": "endorsement",
            "level": 1222172,
            "metadata": {
              "balance_updates": [
                {
                  "change": "-64000000",
                  "contract": "tz1Kt4P8BCaP93AEV4eA7gmpRryWt5hznjCP",
                  "kind": "contract"
                },
                {
                  "category": "deposits",
                  "change": "64000000",
                  "cycle": 298,
                  "delegate": "tz1Kt4P8BCaP93AEV4eA7gmpRryWt5hznjCP",
                  "kind": "freezer"
                },
                {
                  "category": "rewards",
                  "change": "1250000",
                  "cycle": 298,
                  "delegate": "tz1Kt4P8BCaP93AEV4eA7gmpRryWt5hznjCP",
                  "kind": "freezer"
                }
              ],
              "delegate": "tz1Kt4P8BCaP93AEV4eA7gmpRryWt5hznjCP",
              "slots": [
                13
              ]
            }
          }
        ],
        "hash": "ooHuZg8gUVvoKWBrXYkU7meAEAe7mVrzcmxesbnb8SV9gPVrwqV",
        "protocol": "PsDELPH1Kxsxt8f9eWbxQeRxkjfbxoqM52jvs5Y5fBxWWh4ifpo",
        "signature": "sigukxXyGWzwW4mQyz9qK9Trjz8BXdDiBkn9uwkQ61xF6pTmtDyzvcCNpMb6KfYdTwV4UFjdz2X1Bob5gvAQUaMbQAXRFMK4"
      },
      {
        "branch": "BLCrkRNyHsVqifmEfGxs7xKZjQzu9LjJeifpsYV7VCvKbNG2Ub1",
        "chain_id": "NetXdQprcVkpaWU",
        "contents": [
          {
            "kind": "endorsement",
            "level": 1222172,
            "metadata": {
              "balance_updates": [
                {
                  "change": "-64000000",
                  "contract": "tz1NMdMmWZN8QPB8pY4ddncACDg1cHi1xD2e",
                  "kind": "contract"
                },
                {
                  "category": "deposits",
                  "change": "64000000",
                  "cycle": 298,
                  "delegate": "tz1NMdMmWZN8QPB8pY4ddncACDg1cHi1xD2e",
                  "kind": "freezer"
                },
                {
                  "category": "rewards",
                  "change": "1250000",
                  "cycle": 298,
                  "delegate": "tz1NMdMmWZN8QPB8pY4ddncACDg1cHi1xD2e",
                  "kind": "freezer"
                }
              ],
              "delegate": "tz1NMdMmWZN8QPB8pY4ddncACDg1cHi1xD2e",
              "slots": [
                27
              ]
            }
          }
        ],
        "hash": "opJekGkQP5VqXSFwxZujZbHnMjim7XjEfzFGD31AYJ9vMnu4n6Z",
        "protocol": "PsDELPH1Kxsxt8f9eWbxQeRxkjfbxoqM52jvs5Y5fBxWWh4ifpo",
        "signature": "sigae5dJdXGdpDt4wFjH3zo7QfBeLAiHQKKpxRujcCDkraMNjHJCAvek1twC7ixZHw9ue3cP9usdMvECzWGwhA6aUw3HHB97"
      },
      {
        "branch": "BLCrkRNyHsVqifmEfGxs7xKZjQzu9LjJeifpsYV7VCvKbNG2Ub1",
        "chain_id": "NetXdQprcVkpaWU",
        "contents": [
          {
            "kind": "endorsement",
            "level": 1222172,
            "metadata": {
              "balance_updates": [
                {
                  "change": "-64000000",
                  "contract": "tz1KfEsrtDaA1sX7vdM4qmEPWuSytuqCDp5j",
                  "kind": "contract"
                },
                {
                  "category": "deposits",
                  "change": "64000000",
                  "cycle": 298,
                  "delegate": "tz1KfEsrtDaA1sX7vdM4qmEPWuSytuqCDp5j",
                  "kind": "freezer"
                },
                {
                  "category": "rewards",
                  "change": "1250000",
                  "cycle": 298,
                  "delegate": "tz1KfEsrtDaA1sX7vdM4qmEPWuSytuqCDp5j",
                  "kind": "freezer"
                }
              ],
              "delegate": "tz1KfEsrtDaA1sX7vdM4qmEPWuSytuqCDp5j",
              "slots": [
                6
              ]
            }
          }
        ],
        "hash": "oosqWSh8FFxoHyzLT7Dz96fsHBEFNGtFMBViFYqhfYCQjtjvJ2Y",
        "protocol": "PsDELPH1Kxsxt8f9eWbxQeRxkjfbxoqM52jvs5Y5fBxWWh4ifpo",
        "signature": "sigoZgVMXgABqGE62FLceggb9nVmBsYi3W3wuR64yf76iQ1yXVXqTPMcrjZE1TUr4payrzco6JDa79jXGVTTzXAZdaMe1VhA"
      },
      {
        "branch": "BLCrkRNyHsVqifmEfGxs7xKZjQzu9LjJeifpsYV7VCvKbNG2Ub1",
        "chain_id": "NetXdQprcVkpaWU",
        "contents": [
          {
            "kind": "endorsement",
            "level": 1222172,
            "metadata": {
              "balance_updates": [
                {
                  "change": "-64000000",
                  "contract": "tz2TSvNTh2epDMhZHrw73nV9piBX7kLZ9K9m",
                  "kind": "contract"
                },
                {
                  "category": "deposits",
                  "change": "64000000",
                  "cycle": 298,
                  "delegate": "tz2TSvNTh2epDMhZHrw73nV9piBX7kLZ9K9m",
                  "kind": "freezer"
                },
                {
                  "category": "rewards",
                  "change": "1250000",
                  "cycle": 298,
                  "delegate": "tz2TSvNTh2epDMhZHrw73nV9piBX7kLZ9K9m",
                  "kind": "freezer"
                }
              ],
              "delegate": "tz2TSvNTh2epDMhZHrw73nV9piBX7kLZ9K9m",
              "slots": [
                17
              ]
            }
          }
        ],
        "hash": "opHP2GxNz1efyLGvwTBJupXqpAU7KiNW9c4tu9aw5sdAX8UjgGG",
        "protocol": "PsDELPH1Kxsxt8f9eWbxQeRxkjfbxoqM52jvs5Y5fBxWWh4ifpo",
        "signature": "sigaKvKyrjpPzH3c3PtvAkCPoK2YBZsk3vQtssZJVDD4CjbKfcngfjS1APFto4g5rfQfZo6XZFxrQmfk2bCi54HLBFdS2Nar"
      },
      {
        "branch": "BLCrkRNyHsVqifmEfGxs7xKZjQzu9LjJeifpsYV7VCvKbNG2Ub1",
        "chain_id": "NetXdQprcVkpaWU",
        "contents": [
          {
            "kind": "endorsement",
            "level": 1222172,
            "metadata": {
              "balance_updates": [
                {
                  "change": "-64000000",
                  "contract": "tz3NExpXn9aPNZPorRE4SdjJ2RGrfbJgMAaV",
                  "kind": "contract"
                },
                {
                  "category": "deposits",
                  "change": "64000000",
                  "cycle": 298,
                  "delegate": "tz3NExpXn9aPNZPorRE4SdjJ2RGrfbJgMAaV",
                  "kind": "freezer"
                },
                {
                  "category": "rewards",
                  "change": "1250000",
                  "cycle": 298,
                  "delegate": "tz3NExpXn9aPNZPorRE4SdjJ2RGrfbJgMAaV",
                  "kind": "freezer"
                }
              ],
              "delegate": "tz3NExpXn9aPNZPorRE4SdjJ2RGrfbJgMAaV",
              "slots": [
                24
              ]
            }
          }
        ],
        "hash": "oocoEwZpFba2FAwEKgcEFyHHLBsAfziv75NmikVmYmgpyHLFget",
        "protocol": "PsDELPH1Kxsxt8f9eWbxQeRxkjfbxoqM52jvs5Y5fBxWWh4ifpo",
        "signature": "sigRLayD8wFxEgnAMWPmFG3YU6yysfbstGt2ntAFtf3HQDBr6JEnwB9dog3rfLYjWLUiKFH4M6i3T5vnDpdXa4fDsqdJ6UfK"
      },
      {
        "branch": "BLCrkRNyHsVqifmEfGxs7xKZjQzu9LjJeifpsYV7VCvKbNG2Ub1",
        "chain_id": "NetXdQprcVkpaWU",
        "contents": [
          {
            "kind": "endorsement",
            "level": 1222172,
            "metadata": {
              "balance_updates": [
                {
                  "change": "-192000000",
                  "contract": "tz3UoffC7FG7zfpmvmjUmUeAaHvzdcUvAj6r",
                  "kind": "contract"
                },
                {
                  "category": "deposits",
                  "change": "192000000",
                  "cycle": 298,
                  "delegate": "tz3UoffC7FG7zfpmvmjUmUeAaHvzdcUvAj6r",
                  "kind": "freezer"
                },
                {
                  "category": "rewards",
                  "change": "3750000",
                  "cycle": 298,
                  "delegate": "tz3UoffC7FG7zfpmvmjUmUeAaHvzdcUvAj6r",
                  "kind": "freezer"
                }
              ],
              "delegate": "tz3UoffC7FG7zfpmvmjUmUeAaHvzdcUvAj6r",
              "slots": [
                26,
                20,
                1
              ]
            }
          }
        ],
        "hash": "opMp3eQEUKs9qs7KXCYtZukvhmx2ZYB9GbkC3jiGuUHCxPFk83i",
        "protocol": "PsDELPH1Kxsxt8f9eWbxQeRxkjfbxoqM52jvs5Y5fBxWWh4ifpo",
        "signature": "sighL9cdmPtT7EaNXfWLckuhguuQzqW7G9aBQgfEBHrKABBvBo4CQTeSEcw3ogKRipciQXdtVBTmm3ezsS6qQy93V8s4PrFw"
      },
      {
        "branch": "BLCrkRNyHsVqifmEfGxs7xKZjQzu9LjJeifpsYV7VCvKbNG2Ub1",
        "chain_id": "NetXdQprcVkpaWU",
        "contents": [
          {
            "kind": "endorsement",
            "level": 1222172,
            "metadata": {
              "balance_updates": [
                {
                  "change": "-128000000",
                  "contract": "tz3RDC3Jdn4j15J7bBHZd29EUee9gVB1CxD9",
                  "kind": "contract"
                },
                {
                  "category": "deposits",
                  "change": "128000000",
                  "cycle": 298,
                  "delegate": "tz3RDC3Jdn4j15J7bBHZd29EUee9gVB1CxD9",
                  "kind": "freezer"
                },
                {
                  "category": "rewards",
                  "change": "2500000",
                  "cycle": 298,
                  "delegate": "tz3RDC3Jdn4j15J7bBHZd29EUee9gVB1CxD9",
                  "kind": "freezer"
                }
              ],
              "delegate": "tz3RDC3Jdn4j15J7bBHZd29EUee9gVB1CxD9",
              "slots": [
                29,
                28
              ]
            }
          }
        ],
        "hash": "onuZbMRaTsLnxxZbJtDNbFyWKdUH98mMdcrpUkwwpsXM6oFA4sP",
        "protocol": "PsDELPH1Kxsxt8f9eWbxQeRxkjfbxoqM52jvs5Y5fBxWWh4ifpo",
        "signature": "sigXgnkwVKcPzzVbs8dcaD16dkEiWRHU2Bt89PXHcdxoXsspppmCd3W5PgNofSP8tCqyqQKdp6s3iPQw1eoNGduigoNby22f"
      }
    ],
    [],
    [],
    [
      {
        "branch": "BLCrkRNyHsVqifmEfGxs7xKZjQzu9LjJeifpsYV7VCvKbNG2Ub1",
        "chain_id": "NetXdQprcVkpaWU",
        "contents": [
          {
            "amount": "0",
            "counter": "5824731",
            "destination": "KT1JKNrzC57FtUe3dmYXmm12ucmjDmzbkKrc",
            "fee": "2678",
            "gas_limit": "22853",
            "kind": "transaction",
            "metadata": {
              "balance_updates": [
                {
                  "change": "-2678",
                  "contract": "tz1Ts3m2dXTXB66XN7cg5ALiAvzZY6AxrFd9",
                  "kind": "contract"
                },
                {
                  "category": "fees",
                  "change": "2678",
                  "cycle": 298,
                  "delegate": "tz1SYq214SCBy9naR6cvycQsYcUGpBqQAE8d",
                  "kind": "freezer"
                }
              ],
              "operation_result": {
                "balance_updates": [
                  {
                    "change": "-18750",
                    "contract": "tz1Ts3m2dXTXB66XN7cg5ALiAvzZY6AxrFd9",
                    "kind": "contract"
                  }
                ],
                "big_map_diff": [
                  {
                    "action": "update",
                    "big_map": "140",
                    "key": {
                      "bytes": "00005a374e077b2e539f222af1e61964d7487c8b95fe"
                    },
                    "key_hash": "exprtdu27mA67fDuwuTjbpjTmARMEoMTMxeSNJXeaTwUtp1J5aiqzj",
                    "value": {
                      "args": [
                        [],
                        {
                          "int": "65076214"
                        }
                      ],
                      "prim": "Pair"
                    }
                  },
                  {
                    "action": "update",
                    "big_map": "140",
                    "key": {
                      "bytes": "000076ee93a8d1640b8ffbf2ab5aa89f77816eeec75f"
                    },
                    "key_hash": "exprthasNefU27YwD8Jz7i21mYxLZN1SH7V4MPyAS4HGdYsad8uX3w",
                    "value": {
                      "args": [
                        [],
                        {
                          "int": "1000"
                        }
                      ],
                      "prim": "Pair"
                    }
                  }
                ],
                "consumed_gas": "22753",
                "consumed_milligas": "22752534",
                "paid_storage_size_diff": "75",
                "status": "applied",
                "storage": {
                  "args": [
                    {
                      "args": [
                        {
                          "bytes": "00005a374e077b2e539f222af1e61964d7487c8b95fe"
                        },
                        {
                          "args": [
                            {
                              "int": "6"
                            },
                            {
                              "int": "140"
                            }
                          ],
                          "prim": "Pair"
                        }
                      ],
                      "prim": "Pair"
                    },
                    {
                      "args": [
                        {
                          "args": [
                            {
                              "string": "OroPocket Gold"
                            },
                            {
                              "prim": "False"
                            }
                          ],
                          "prim": "Pair"
                        },
                        {
                          "args": [
                            {
                              "string": "XTZGold"
                            },
                            {
                              "int": "356228421"
                            }
                          ],
                          "prim": "Pair"
                        }
                      ],
                      "prim": "Pair"
                    }
                  ],
                  "prim": "Pair"
                },
                "storage_size": "85026"
              }
            },
            "parameters": {
              "entrypoint": "transfer",
              "value": {
                "args": [
                  {
                    "string": "tz1Ts3m2dXTXB66XN7cg5ALiAvzZY6AxrFd9"
                  },
                  {
                    "args": [
                      {
                        "string": "tz1WUtEMvHwfbXAkYZDEWEs4nKoWe2Dr23Zx"
                      },
                      {
                        "int": "1000"
                      }
                    ],
                    "prim": "Pair"
                  }
                ],
                "prim": "Pair"
              }
            },
            "source": "tz1Ts3m2dXTXB66XN7cg5ALiAvzZY6AxrFd9",
            "storage_limit": "75"
          }
        ],
        "hash": "ooKay18CvF6NxvB5G1MWxRLQWoHq2NLHraENi7N2gV2uzj6drD2",
        "protocol": "PsDELPH1Kxsxt8f9eWbxQeRxkjfbxoqM52jvs5Y5fBxWWh4ifpo",
        "signature": "sigtM4bq4o1oCFUDXNuYfJRRavGk3yLZ8foEwi62Q996Xk1DuBq7YFgp2MfHBCyS3ZERcAhoM4BW6fsmdnxEJpLkzri51BcJ"
      },
      {
        "branch": "BL1o7jrKy9XJnJoTXfqeQE94BKgJEN16Q1MY8qUGmW9ow9WH9sB",
        "chain_id": "NetXdQprcVkpaWU",
        "contents": [
          {
            "amount": "0",
            "counter": "5927106",
            "destination": "KT19kgnqC5VWoxktLRdRUERbyUPku9YioE8W",
            "fee": "824",
            "gas_limit": "5104",
            "kind": "transaction",
            "metadata": {
              "balance_updates": [
                {
                  "change": "-824",
                  "contract": "tz1c5wM9826YcUNQ8a17z9eUYpKQ3oW3zfmJ",
                  "kind": "contract"
                },
                {
                  "category": "fees",
                  "change": "824",
                  "cycle": 298,
                  "delegate": "tz1SYq214SCBy9naR6cvycQsYcUGpBqQAE8d",
                  "kind": "freezer"
                }
              ],
              "operation_result": {
                "consumed_gas": "4904",
                "consumed_milligas": "4903559",
                "status": "applied",
                "storage": {
                  "args": [
                    {
                      "args": [
                        {
                          "int": "1605788400"
                        },
                        {
                          "args": [
                            {
                              "int": "208"
                            },
                            {
                              "args": [
                                {
                                  "int": "91"
                                },
                                {
                                  "int": "190"
                                }
                              ],
                              "prim": "Pair"
                            }
                          ],
                          "prim": "Pair"
                        }
                      ],
                      "prim": "Pair"
                    },
                    {
                      "bytes": "0000b4685dc0a9a5cc28942065288413ce5bea2f76a0"
                    }
                  ],
                  "prim": "Pair"
                },
                "storage_size": "621"
              }
            },
            "parameters": {
              "entrypoint": "update_value",
              "value": {
                "args": [
                  {
                    "string": "2020-11-19T12:20:00Z"
                  },
                  {
                    "args": [
                      {
                        "int": "208"
                      },
                      {
                        "args": [
                          {
                            "int": "91"
                          },
                          {
                            "int": "190"
                          }
                        ],
                        "prim": "Pair"
                      }
                    ],
                    "prim": "Pair"
                  }
                ],
                "prim": "Pair"
              }
            },
            "source": "tz1c5wM9826YcUNQ8a17z9eUYpKQ3oW3zfmJ",
            "storage_limit": "0"
          }
        ],
        "hash": "ooKmpsChctenwj4CmtVPtCKMq8L3FkUgfyZEnmAzGVmRL7inpZR",
        "protocol": "PsDELPH1Kxsxt8f9eWbxQeRxkjfbxoqM52jvs5Y5fBxWWh4ifpo",
        "signature": "sigZtZV7n4gwJMjhouGZ9evNsKUTjGzjtuzUahjAJmFAnXuu3xqdaGCaesRM31LJiA6xQE1ag8wtMVKDosWVY2jvpmjcYPS1"
      }
    ]
  ],
  "protocol": "PsDELPH1Kxsxt8f9eWbxQeRxkjfbxoqM52jvs5Y5fBxWWh4ifpo"
}
