{
  "chain_id": "NetXdQprcVkpaWU",
  "hash": "BKygLbALyUP6b5CGZsarGeddrWBAZZVbabj6UbY7gVw7r9nWbZP",
  "header": {
    "context": "CoUnst8a5z1E2gh51ZTPtyiGk1b3kAdj4uhne3qzorrCgRpS5UeF",
    "fitness": [
      "01",
      "000000000008a623"
    ],
    "level": 1222179,
    "operations_hash": "LLoZhSgV8sbAwWgK3ZQvhC3xS4fjcJLK5Fporf9PDsNGA1HcRy5Ud",
    "predecessor": "BMAsfFSgKeTsLNN2pbYEn9ioUe1i2M6pEBrN2K5QEzsWJn8B4nN",
    "priority": 0,
    "proof_of_work_nonce": "ce36545658ea0400",
    "proto": 7,
    "signature": "sigsCbLd4TwZR5JuGM6oQKB7MqcMvfvTqKwp929mEE2KDBaGtbDZzLqvBKzAEcNsUDvjHjuH2XsvC3zaBRuCTbm6utxBtYtB",
    "timestamp": "2020-11-19T12:28:10Z",
    "validation_pass": 4
  },
  "metadata": {
    "baker": "tz1MXFrtZoaXckE41bjUCSjAjAap3AFDSr3N",
    "balance_updates": [
      {
        "change": "-512000000",
        "contract": "tz1MXFrtZoaXckE41bjUCSjAjAap3AFDSr3N",
        "kind": "contract"
      },
      {
        "category": "deposits",
        "change": "512000000",
        "cycle": 298,
        "delegate": "tz1MXFrtZoaXckE41bjUCSjAjAap3AFDSr3N",
        "kind": "freezer"
      },
      {
        "category": "rewards",
        "change": "38750000",
        "cycle": 298,
        "delegate": "tz1MXFrtZoaXckE41bjUCSjAjAap3AFDSr3N",
        "kind": "freezer"
      }
    ],
    "consumed_gas": "4998559",
    "deactivated": [],
    "level": {
      "cycle": 298,
      "cycle_position": 1570,
      "expected_commitment": false,
      "level": 1222179,
      "level_position": 1222178,
      "voting_period": 37,
      "voting_period_position": 9762
    },
    "max_block_header_length": 238,
    "max_operation_data_length": 16384,
    "max_operation_list_length": [
      {
        "max_op": 32,
        "max_size": 32768
      },
      {
        "max_size": 32768
      },
      {
        "max_op": 132,
        "max_size": 135168
      },
      {
        "max_size": 524288
      }
    ],
    "max_operations_ttl": 60,
    "next_protocol": "PsDELPH1Kxsxt8f9eWbxQeRxkjfbxoqM52jvs5Y5fBxWWh4ifpo",
    "nonce_hash": null,
    "protocol": "PsDELPH1Kxsxt8f9eWbxQeRxkjfbxoqM52jvs5Y5fBxWWh4ifpo",
    "test_chain_status": {
      "status": "not_running"
    },
    "voting_period_kind": "proposal"
  },
  "operations": [
    [
      {
        "branch": "BMAsfFSgKeTsLNN2pbYEn9ioUe1i2M6pEBrN2K5QEzsWJn8B4nN",
        "chain_id": "NetXdQprcVkpaWU",
        "contents": [
          {
            "kind": "endorsement",
            "level": 1222178,
            "metadata": {
              "balance_updates": [
                {
                  "change": "-64000000",
                  "contract": "tz1LcuQHNVQEWP2fZjk1QYZGNrfLDwrT3SyZ",
                  "kind": "contract"
                },
                {
                  "category": "deposits",
                  "change": "64000000",
                  "cycle": 298,
                  "delegate": "tz1LcuQHNVQEWP2fZjk1QYZGNrfLDwrT3SyZ",
                  "kind": "freezer"
                },
                {
                  "category": "rewards",
                  "change": "1250000",
                  "cycle": 298,
                  "delegate": "tz1LcuQHNVQEWP2fZjk1QYZGNrfLDwrT3SyZ",
                  "kind": "freezer"
                }
              ],
              "delegate": "tz1LcuQHNVQEWP2fZjk1QYZGNrfLDwrT3SyZ",
              "slots": [
                24
              ]
            }
          }
        ],
        "hash": "ooYtd6JLZUhGa5hrh2YT4xVZtdc7rnoYtUjwCh27R3SNGzD4RPN",
        "protocol": "PsDELPH1Kxsxt8f9eWbxQeRxkjfbxoqM52jvs5Y5fBxWWh4ifpo",
        "signature": "sigmCN5ZBeLTxN1pLaz36NFZxgQpfoYuTefWwwGwUy1xrDg72uFBYvW2vUCmrr35uLALKQ5D6KaKETcCZ3dtS8aD5UfyVACe"
      },
      {
        "branch": "BMAsfFSgKeTsLNN2pbYEn9ioUe1i2M6pEBrN2K5QEzsWJn8B4nN",
        "chain_id": "NetXdQprcVkpaWU",
        "contents": [
          {
            "kind": "endorsement",
            "level": 1222178,
            "metadata": {
              "balance_updates": [
                {
                  "change": "-64000000",
                  "contract": "tz1NpWrAyDL9k2Lmnyxcgr9xuJakbBxdq7FB",
                  "kind": "contract"
                },
                {
                  "category": "deposits",
                  "change": "64000000",
                  "cycle": 298,
                  "delegate": "tz1NpWrAyDL9k2Lmnyxcgr9xuJakbBxdq7FB",
                  "kind": "freezer"
                },
                {
                  "category": "rewards",
                  "change": "1250000",
                  "cycle": 298,
                  "delegate": "tz1NpWrAyDL9k2Lmnyxcgr9xuJakbBxdq7FB",
                  "kind": "freezer"
                }
              ],
              "delegate": "tz1NpWrAyDL9k2Lmnyxcgr9xuJakbBxdq7FB",
              "slots": [
                6
              ]
            }
          }
        ],
        "hash": "opRcgmwCfS3nar7FuXqBLY5pbJjL4Pj3kd6YMXJu2pHmUdHSzus",
        "protocol": "PsDELPH1Kxsxt8f9eWbxQeRxkjfbxoqM52jvs5Y5fBxWWh4ifpo",
        "signature": "sigdnCT4iQMGZE53qb15cprzKZhKpyWooruu3Egs5HU8ispGLMLbnVu69LxEh8kHqDmbyTgGvuMsCgKq9ng3a636QtNWfpxx"
      },
      {
        "branch": "BMAsfFSgKeTsLNN2pbYEn9ioUe1i2M6pEBrN2K5QEzsWJn8B4nN",
        "chain_id": "NetXdQprcVkpaWU",
        "contents": [
          {
            "kind": "endorsement",
            "level": 1222178,
            "metadata": {
              "balance_updates": [
                {
                  "change": "-128000000",
                  "contract": "tz3bTdwZinP8U1JmSweNzVKhmwafqWmFWRfk",
                  "kind": "contract"
                },
                {
                  "category": "deposits",
                  "change": "128000000",
                  "cycle": 298,
                  "delegate": "tz3bTdwZinP8U1JmSweNzVKhmwafqWmFWRfk",
                  "kind": "freezer"
                },
                {
                  "category": "rewards",
                  "change": "2500000",
                  "cycle": 298,
                  "delegate": "tz3bTdwZinP8U1JmSweNzVKhmwafqWmFWRfk",
                  "kind": "freezer"
                }
              ],
              "delegate": "tz3bTdwZinP8U1JmSweNzVKhmwafqWmFWRfk",
              "slots": [
                29,
                22
              ]
            }
          }
        ],
        "hash": "oo9tU5tF8x9irHG4B4Mj4kdTP2D5RdoShHxiemQrbQkBQT3cLby",
        "protocol": "PsDELPH1Kxsxt8f9eWbxQeRxkjfbxoqM52jvs5Y5fBxWWh4ifpo",
        "signature": "sigbfMURpv8DEhiwAcJrXfJHU9imAPUgCHr8mCxyrkxTAvUJb3zfrK21tVCi8EirEjv4a77fZV45u5LLPzHMtWJG8dGEiKRx"
      },
      {
        "branch": "BMAsfFSgKeTsLNN2pbYEn9ioUe1i2M6pEBrN2K5QEzsWJn8B4nN",
        "chain_id": "NetXdQprcVkpaWU",
        "contents": [
          {
            "kind": "endorsement",
            "level": 1222178,
            "metadata": {
              "balance_updates": [
                {
                  "change": "-64000000",
                  "contract": "tz1PWCDnz783NNGGQjEFFsHtrcK5yBW4E2rm",
                  "kind": "contract"
                },
                {
                  "category": "deposits",
                  "change": "64000000",
                  "cycle": 298,
                  "delegate": "tz1PWCDnz783NNGGQjEFFsHtrcK5yBW4E2rm",
                  "kind": "freezer"
                },
                {
                  "category": "rewards",
                  "change": "1250000",
                  "cycle": 298,
                  "delegate": "tz1PWCDnz783NNGGQjEFFsHtrcK5yBW4E2rm",
                  "kind": "freezer"
                }
              ],
              "delegate": "tz1PWCDnz783NNGGQjEFFsHtrcK5yBW4E2rm",
              "slots": [
                15
              ]
            }
          }
        ],
        "hash": "ooxn6GEKYdzPWtvwoVay3cSUgSLfSE8q2uJam3begB22FmuASbi",
        "protocol": "PsDELPH1Kxsxt8f9eWbxQeRxkjfbxoqM52jvs5Y5fBxWWh4ifpo",
        "signature": "sigiPVrzxFSjHgHW5ymEGohEfq7g9PoVASRgdQJiYQNY3hLNdnnFntZUsjDpxLk4F7EKvLdFj3LHC4Zv6rPNFmQdcGaqoEWm"
      },
      {
        "branch": "BMAsfFSgKeTsLNN2pbYEn9ioUe1i2M6pEBrN2K5QEzsWJn8B4nN",
        "chain_id": "NetXdQprcVkpaWU",
        "contents": [
          {
            "kind": "endorsement",
            "level": 1222178,
            "metadata": {
              "balance_updates": [
                {
                  "change": "-128000000",
                  "contract": "tz3VEZ4k6a4Wx42iyev6i2aVAptTRLEAivNN",
                  "kind": "contract"
                },
                {
                  "category": "deposits",
                  "change": "128000000",
                  "cycle": 298,
                  "delegate": "tz3VEZ4k6a4Wx42iyev6i2aVAptTRLEAivNN",
                  "kind": "freezer"
                },
                {
                  "category": "rewards",
                  "change": "2500000",
                  "cycle": 298,
                  "delegate": "tz3VEZ4k6a4Wx42iyev6i2aVAptTRLEAivNN",
                  "kind": "freezer"
                }
              ],
              "delegate": "tz3VEZ4k6a4Wx42iyev6i2aVAptTRLEAivNN",
              "slots": [
                25,
                16
              ]
            }
          }
        ],
        "hash": "onx6D2QTTLVGmqnGwxX1R25jvXmFoddKPypHviyPZbrqKC5rS1v",
        "protocol": "PsDELPH1Kxsxt8f9eWbxQeRxkjfbxoqM52jvs5Y5fBxWWh4ifpo",
        "signature": "signgsF9VSLCNZm17pbnEnXqaXF5hmLgEUUG8R4F8hPbFpCzTZu6LTdsJxW3u1sRucxmZGiEwtfqz7fgTdnAKsCRx9vHi8yG"
      },
      {
        "branch": "BMAsfFSgKeTsLNN2pbYEn9ioUe1i2M6pEBrN2K5QEzsWJn8B4nN",
        "chain_id": "NetXdQprcVkpaWU",
        "contents": [
          {
            "kind": "endorsement",
            "level": 1222178,
            "metadata": {
              "balance_updates": [
                {
                  "change": "-128000000",
                  "contract": "tz1irJKkXS2DBWkU1NnmFQx1c1L7pbGg4yhk",
                  "kind": "contract"
                },
                {
                  "category": "deposits",
                  "change": "128000000",
                  "cycle": 298,
                  "delegate": "tz1irJKkXS2DBWkU1NnmFQx1c1L7pbGg4yhk",
                  "kind": "freezer"
                },
                {
                  "category": "rewards",
                  "change": "2500000",
                  "cycle": 298,
                  "delegate": "tz1irJKkXS2DBWkU1NnmFQx1c1L7pbGg4yhk",
                  "kind": "freezer"
                }
              ],
              "delegate": "tz1irJKkXS2DBWkU1NnmFQx1c1L7pbGg4yhk",
              "slots": [
                11,
                9
              ]
            }
          }
        ],
        "hash": "opRwqDwfC8c2XGLP6BWGmhu2KEXGpKNvkSAHqnZH2xCxEsu5aif",
        "protocol": "PsDELPH1Kxsxt8f9eWbxQeRxkjfbxoqM52jvs5Y5fBxWWh4ifpo",
        "signature": "sigqS3Z5n8bShX11sqyWVe9Be9FCWzLwsMQoGp88xVvPht9GAvsusGgvW5RPZ19FgyGNmr7ztcpVahhLn32Sx9TJRpLR52Ga"
      },
      {
        "branch": "BMAsfFSgKeTsLNN2pbYEn9ioUe1i2M6pEBrN2K5QEzsWJn8B4nN",
        "chain_id": "NetXdQprcVkpaWU",
        "contents": [
          {
            "kind": "endorsement",
            "level": 1222178,
            "metadata": {
              "balance_updates": [
                {
                  "change": "-192000000",
                  "contract": "tz1gfArv665EUkSg2ojMBzcbfwuPxAvqPvjo",
                  "kind": "contract"
                },
                {
                  "category": "deposits",
                  "change": "192000000",
                  "cycle": 298,
                  "delegate": "tz1gfArv665EUkSg2ojMBzcbfwuPxAvqPvjo",
                  "kind": "freezer"
                },
                {
                  "category": "rewards",
                  "change": "3750000",
                  "cycle": 298,
                  "delegate": "tz1gfArv665EUkSg2ojMBzcbfwuPxAvqPvjo",
                  "kind": "freezer"
                }
              ],
              "delegate": "tz1gfArv665EUkSg2ojMBzcbfwuPxAvqPvjo",
              "slots": [
                21,
                13,
                2
              ]
            }
          }
        ],
        "hash": "ooyrVr4bFPNtHwpExChVVoSKLSUzkUEPkM5PaMKuRgHFBgSif8M",
        "protocol": "PsDELPH1Kxsxt8f9eWbxQeRxkjfbxoqM52jvs5Y5fBxWWh4ifpo",
        "signature": "sigRLHeDgnQ84EWg5g6YBYZ8oATRXtTyCkxLUjehHyjJ6uVGMfWSjbF9MVDUSPLhqpVsxmBEET7pCx2ki4DkagN4Wd5kumhV"
      },
      {
        "branch": "BMAsfFSgKeTsLNN2pbYEn9ioUe1i2M6pEBrN2K5QEzsWJn8B4nN",
        "chain_id": "NetXdQprcVkpaWU",
        "contents": [
          {
            "kind": "endorsement",
            "level": 1222178,
            "metadata": {
              "balance_updates": [
                {
                  "change": "-64000000",
                  "contract": "tz1fUjvVhJrHLZCbhPNvDRckxApqbkievJHN",
                  "kind": "contract"
                },
                {
                  "category": "deposits",
                  "change": "64000000",
                  "cycle": 298,
                  "delegate": "tz1fUjvVhJrHLZCbhPNvDRckxApqbkievJHN",
                  "kind": "freezer"
                },
                {
                  "category": "rewards",
                  "change": "1250000",
                  "cycle": 298,
                  "delegate": "tz1fUjvVhJrHLZCbhPNvDRckxApqbkievJHN",
                  "kind": "freezer"
                }
              ],
              "delegate": "tz1fUjvVhJrHLZCbhPNvDRckxApqbkievJHN",
              "slots": [
                28
              ]
            }
          }
        ],
        "hash": "onzS8yXf3mcvtq8oxigtM1teWWZ5PGNCidDQeoWcq3psobXqz78",
        "protocol": "PsDELPH1Kxsxt8f9eWbxQeRxkjfbxoqM52jvs5Y5fBxWWh4ifpo",
        "signature": "siggSRE3YxX2TTk5FQTPtRfQm6qyXf35wRjKS33n5kqvkC5HpzTBj7Jy4DyT4z7eEzin2WSa4uqWD1jhTwRLapv2u82EmosS"
      },
      {
        "branch": "BMAsfFSgKeTsLNN2pbYEn9ioUe1i2M6pEBrN2K5QEzsWJn8B4nN",
        "chain_id": "NetXdQprcVkpaWU",
        "contents": [
          {
            "kind": "endorsement",
            "level": 1222178,
            "metadata": {
              "balance_updates": [
                {
                  "change": "-64000000",
                  "contract": "tz1P2Po7YM526ughEsRbY4oR9zaUPDZjxFrb",
                  "kind": "contract"
                },
                {
                  "category": "deposits",
                  "change": "64000000",
                  "cycle": 298,
                  "delegate": "tz1P2Po7YM526ughEsRbY4oR9zaUPDZjxFrb",
                  "kind": "freezer"
                },
                {
                  "category": "rewards",
                  "change": "1250000",
                  "cycle": 298,
                  "delegate": "tz1P2Po7YM526ughEsRbY4oR9zaUPDZjxFrb",
                  "kind": "freezer"
                }
              ],
              "delegate": "tz1P2Po7YM526ughEsRbY4oR9zaUPDZjxFrb",
              "slots": [
                0
              ]
            }
          }
        ],
        "hash": "oojXv5u8X11NBRnpLaRFBfpNqkPzwYpWBjp4op98v5c2hPXzVd5",
        "protocol": "PsDELPH1Kxsxt8f9eWbxQeRxkjfbxoqM52jvs5Y5fBxWWh4ifpo",
        "signature": "sigVR2scqwphVjghpivcKCAZJKeoFm3g9LbTybaPx5JPzcApj6PcH6yG9Li1LWHJQwRCgLtrL1iegbhRRDA233LUXFCVnDGn"
      },
      {
        "branch": "BMAsfFSgKeTsLNN2pbYEn9ioUe1i2M6pEBrN2K5QEzsWJn8B4nN",
        "chain_id": "NetXdQprcVkpaWU",
        "contents": [
          {
            "kind": "endorsement",
            "level": 1222178,
            "metadata": {
              "balance_updates": [
                {
                  "change": "-64000000",
                  "contract": "tz1MUbPBAH6jzhex85AW6MD9uJzXP58N1Dro",
                  "kind": "contract"
                },
                {
                  "category": "deposits",
                  "change": "64000000",
                  "cycle": 298,
                  "delegate": "tz1MUbPBAH6jzhex85AW6MD9uJzXP58N1Dro",
                  "kind": "freezer"
                },
                {
                  "category": "rewards",
                  "change": "1250000",
                  "cycle": 298,
                  "delegate": "tz1MUbPBAH6jzhex85AW6MD9uJzXP58N1Dro",
                  "kind": "freezer"
                }
              ],
              "delegate": "tz1MUbPBAH6jzhex85AW6MD9uJzXP58N1Dro",
              "slots": [
                14
              ]
            }
          }
        ],
        "hash": "onjhTNFbKbXFFFwg3T6FA7fKrfoHSgGVPzCXDqruXncPwTJZQ85",
        "protocol": "PsDELPH1Kxsxt8f9eWbxQeRxkjfbxoqM52jvs5Y5fBxWWh4ifpo",
        "signature": "sigTJkuxDsMo7E2VSUgJHQeuzGdBa6PKMb3qPod48iYBrFm6srSEvXcng4RnPLGKVjGfNBwvZPwhavMRoTTLrg7aLPWKnQYG"
      },
      {
        "branch": "BMAsfFSgKeTsLNN2pbYEn9ioUe1i2M6pEBrN2K5QEzsWJn8B4nN",
        "chain_id": "NetXdQprcVkpaWU",
        "contents": [
          {
            "kind": "endorsement",
            "level": 1222178,
            "metadata": {
              "balance_updates": [
                {
                  "change": "-64000000",
                  "contract": "tz1Myd4Dm3jGqECiRzCaeXptqS3nfVwpN5Dr",
                  "kind": "contract"
                },
                {
                  "category": "deposits",
                  "change": "64000000",
                  "cycle": 298,
                  "delegate": "tz1Myd4Dm3jGqECiRzCaeXptqS3nfVwpN5Dr",
                  "kind": "freezer"
                },
                {
                  "category": "rewards",
                  "change": "1250000",
                  "cycle": 298,
                  "delegate": "tz1Myd4Dm3jGqECiRzCaeXptqS3nfVwpN5Dr",
                  "kind": "freezer"
                }
              ],
              "delegate": "tz1Myd4Dm3jGqECiRzCaeXptqS3nfVwpN5Dr",
              "slots": [
                3
              ]
            }
          }
        ],
        "hash": "onxKAwvT1uhHgR2iGSTkEAX9aL3PYHabjZwnY1Mwy7HAZcrwjF2",
        "protocol": "PsDELPH1Kxsxt8f9eWbxQeRxkjfbxoqM52jvs5Y5fBxWWh4ifpo",
        "signature": "sigfo1Ucmjqn4ZRU2LwADyNmYypCYza6jEdYvsrwpwqw72j3moxmbqh1URYKSrZ8bjbwAYyUfoVf6kcJMuxVkg6KRY8iZaDV"
      },
      {
        "branch": "BMAsfFSgKeTsLNN2pbYEn9ioUe1i2M6pEBrN2K5QEzsWJn8B4nN",
        "chain_id": "NetXdQprcVkpaWU",
        "contents": [
          {
            "kind": "endorsement",
            "level": 1222178,
            "metadata": {
              "balance_updates": [
                {
                  "change": "-64000000",
                  "contract": "tz1eEnQhbwf6trb8Q8mPb2RaPkNk2rN7BKi8",
                  "kind": "contract"
                },
                {
                  "category": "deposits",
                  "change": "64000000",
                  "cycle": 298,
                  "delegate": "tz1eEnQhbwf6trb8Q8mPb2RaPkNk2rN7BKi8",
                  "kind": "freezer"
                },
                {
                  "category": "rewards",
                  "change": "1250000",
                  "cycle": 298,
                  "delegate": "tz1eEnQhbwf6trb8Q8mPb2RaPkNk2rN7BKi8",
                  "kind": "freezer"
                }
              ],
              "delegate": "tz1eEnQhbwf6trb8Q8mPb2RaPkNk2rN7BKi8",
              "slots": [
                23
              ]
            }
          }
        ],
        "hash": "op3M3pbQ3g2BqKW9dRmvjoZ55TvMGWrgsbZDrwrybx1V4SAHcbH",
        "protocol": "PsDELPH1Kxsxt8f9eWbxQeRxkjfbxoqM52jvs5Y5fBxWWh4ifpo",
        "signature": "sigmYtJjVjVNwnBUyq3Gp7YSCsDdw2YSG9XurjMgsbjMrJdiC4k8WSHqW8yJUCNrZX83VGhmBujUC9RtzGrok2EJgyW6C5J9"
      },
      {
        "branch": "BMAsfFSgKeTsLNN2pbYEn9ioUe1i2M6pEBrN2K5QEzsWJn8B4nN",
        "chain_id": "NetXdQprcVkpaWU",
        "contents": [
          {
            "kind": "endorsement",
            "level": 1222178,
            "metadata": {
              "balance_updates": [
                {
                  "change": "-64000000",
                  "contract": "tz1WpeqFaBG9Jm73Dmgqamy8eF8NWLz9JCoY",
                  "kind": "contract"
                },
                {
                  "category": "deposits",
                  "change": "64000000",
                  "cycle": 298,
                  "delegate": "tz1WpeqFaBG9Jm73Dmgqamy8eF8NWLz9JCoY",
                  "kind": "freezer"
                },
                {
                  "category": "rewards",
                  "change": "1250000",
                  "cycle": 298,
                  "delegate": "tz1WpeqFaBG9Jm73Dmgqamy8eF8NWLz9JCoY",
                  "kind": "freezer"
                }
              ],
              "delegate": "tz1WpeqFaBG9Jm73Dmgqamy8eF8NWLz9JCoY",
              "slots": [
                8
              ]
            }
          }
        ],
        "hash": "opC8GK3n8h5uDuUWyvGZh5QcC7sVsmrVLZW9iQGM6YA2eWYmcN9",
        "protocol": "PsDELPH1Kxsxt8f9eWbxQeRxkjfbxoqM52jvs5Y5fBxWWh4ifpo",
        "signature": "sigZ1hhSFBFLtMLWQB6NYazKXZVkdfRNK9S56X7Cea1koF4sr4t9UbXbhiWpK4xw3ENXtpZKabi5tB3ACDCfRrzVJV3TSvf8"
      },
      {
        "branch": "BMAsfFSgKeTsLNN2pbYEn9ioUe1i2M6pEBrN2K5QEzsWJn8B4nN",
        "chain_id": "NetXdQprcVkpaWU",
        "contents": [
          {
            "kind": "endorsement",
            "level": 1222178,
            "metadata": {
              "balance_updates": [
                {
                  "change": "-64000000",
                  "contract": "tz1aRoaRhSpRYvFdyvgWLL6TGyRoGF51wDjM",
                  "kind": "contract"
                },
                {
                  "category": "deposits",
                  "change": "64000000",
                  "cycle": 298,
                  "delegate": "tz1aRoaRhSpRYvFdyvgWLL6TGyRoGF51wDjM",
                  "kind": "freezer"
                },
                {
                  "category": "rewards",
                  "change": "1250000",
                  "cycle": 298,
                  "delegate": "tz1aRoaRhSpRYvFdyvgWLL6TGyRoGF51wDjM",
                  "kind": "freezer"
                }
              ],
              "delegate": "tz1aRoaRhSpRYvFdyvgWLL6TGyRoGF51wDjM",
              "slots": [
                20
              ]
            }
          }
        ],
        "hash": "onun5P7iwJNCdvngJN4qVkYBKrHVSZGGJGbMeX5wSuDAS94EfCg",
        "protocol": "PsDELPH1Kxsxt8f9eWbxQeRxkjfbxoqM52jvs5Y5fBxWWh4ifpo",
        "signature": "sigQqfvv3axVuKbyyqD9Pqv7dAaUz5HsVHEKFcuQyTTKW2kZDJk8SA5YPbajEPuWrKZaTwLZuduRPwXkpH4oRLDgmUyBsg5s"
      },
      {
        "branch": "BMAsfFSgKeTsLNN2pbYEn9ioUe1i2M6pEBrN2K5QEzsWJn8B4nN",
        "chain_id": "NetXdQprcVkpaWU",
        "contents": [
          {
            "kind": "endorsement",
            "level": 1222178,
            "metadata": {
              "balance_updates": [
                {
                  "change": "-192000000",
                  "contract": "tz3NExpXn9aPNZPorRE4SdjJ2RGrfbJgMAaV",
                  "kind": "contract"
                },
                {
                  "category": "deposits",
                  "change": "192000000",
                  "cycle": 298,
                  "delegate": "tz3NExpXn9aPNZPorRE4SdjJ2RGrfbJgMAaV",
                  "kind": "freezer"
                },
                {
                  "category": "rewards",
                  "change": "3750000",
                  "cycle": 298,
                  "delegate": "tz3NExpXn9aPNZPorRE4SdjJ2RGrfbJgMAaV",
                  "kind": "freezer"
                }
              ],
              "delegate": "tz3NExpXn9aPNZPorRE4SdjJ2RGrfbJgMAaV",
              "slots": [
                30,
                26,
                4
              ]
            }
          }
        ],
        "hash": "ooBhr94xfe9Y7JXauFWfQzFG4buUehTtCrVK13Hm5xhdWR5pALv",
        "protocol": "PsDELPH1Kxsxt8f9eWbxQeRxkjfbxoqM52jvs5Y5fBxWWh4ifpo",
        "signature": "sigjaadFNpxpszCFnJ8fbH8isbAE3iS8f8ubc1KEKxoBjQVtsib29UXDSU47mBXu5aVk3RT5PTeMacmpyRZBDYRBzL1p1RUm"
      },
      {
        "branch": "BMAsfFSgKeTsLNN2pbYEn9ioUe1i2M6pEBrN2K5QEzsWJn8B4nN",
        "chain_id": "NetXdQprcVkpaWU",
        "contents": [
          {
            "kind": "endorsement",
            "level": 1222178,
            "metadata": {
              "balance_updates": [
                {
                  "change": "-64000000",
                  "contract": "tz3RDC3Jdn4j15J7bBHZd29EUee9gVB1CxD9",
                  "kind": "contract"
                },
                {
                  "category": "deposits",
                  "change": "64000000",
                  "cycle": 298,
                  "delegate": "tz3RDC3Jdn4j15J7bBHZd29EUee9gVB1CxD9",
                  "kind": "freezer"
                },
                {
                  "category": "rewards",
                  "change": "1250000",
                  "cycle": 298,
                  "delegate": "tz3RDC3Jdn4j15J7bBHZd29EUee9gVB1CxD9",
                  "kind": "freezer"
                }
              ],
              "delegate": "tz3RDC3Jdn4j15J7bBHZd29EUee9gVB1CxD9",
              "slots": [
                5
              ]
            }
          }
        ],
        "hash": "opEz1QR41uQzn1h4couyrGrf6D1tTavzAQxnE3L5cYD4fwBrSpR",
        "protocol": "PsDELPH1Kxsxt8f9eWbxQeRxkjfbxoqM52jvs5Y5fBxWWh4ifpo",
        "signature": "sigj4erW5vXM88YcWtdhXaKNbFDcfcLaDbUKU5dfe5RWNW3Tw23PGZ3n5Taw8HP9i9XhZTRDAj1JEvyinptyptSoCApinB52"
      },
      {
        "branch": "BMAsfFSgKeTsLNN2pbYEn9ioUe1i2M6pEBrN2K5QEzsWJn8B4nN",
        "chain_id": "NetXdQprcVkpaWU",
        "contents": [
          {
            "kind": "endorsement",
            "level": 1222178,
            "metadata": {
              "balance_updates": [
                {
                  "change": "-64000000",
                  "contract": "tz1f3Re8iw6Pt3KMHAvyccHxDU3NuqL95axD",
                  "kind": "contract"
                },
                {
                  "category": "deposits",
                  "change": "64000000",
                  "cycle": 298,
                  "delegate": "tz1f3Re8iw6Pt3KMHAvyccHxDU3NuqL95axD",
                  "kind": "freezer"
                },
                {
                  "category": "rewards",
                  "change": "1250000",
                  "cycle": 298,
                  "delegate": "tz1f3Re8iw6Pt3KMHAvyccHxDU3NuqL95axD",
                  "kind": "freezer"
                }
              ],
              "delegate": "tz1f3Re8iw6Pt3KMHAvyccHxDU3NuqL95axD",
              "slots": [
                27
              ]
            }
          }
        ],
        "hash": "ooKxKnaiM2gkzkYK1jRWSTojp1aLGYEMdvzJjD2jEMLcTyBU16d",
        "protocol": "PsDELPH1Kxsxt8f9eWbxQeRxkjfbxoqM52jvs5Y5fBxWWh4ifpo",
        "signature": "sigqiNQmu3QW9Yy1yYbbLbGLLNZV4UMTCfaNFL6FyTsF8ezTyFAiHNd9MXVvEhuxxXgakro48XYxkcZeVz5xawLLp4Exor96"
      },
      {
        "branch": "BMAsfFSgKeTsLNN2pbYEn9ioUe1i2M6pEBrN2K5QEzsWJn8B4nN",
        "chain_id": "NetXdQprcVkpaWU",
        "contents": [
          {
            "kind": "endorsement",
            "level": 1222178,
            "metadata": {
              "balance_updates": [
                {
                  "change": "-128000000",
                  "contract": "tz1Ldzz6k1BHdhuKvAtMRX7h5kJSMHESMHLC",
                  "kind": "contract"
                },
                {
                  "category": "deposits",
                  "change": "128000000",
                  "cycle": 298,
                  "delegate": "tz1Ldzz6k1BHdhuKvAtMRX7h5kJSMHESMHLC",
                  "kind": "freezer"
                },
                {
                  "category": "rewards",
                  "change": "2500000",
                  "cycle": 298,
                  "delegate": "tz1Ldzz6k1BHdhuKvAtMRX7h5kJSMHESMHLC",
                  "kind": "freezer"
                }
              ],
              "delegate": "tz1Ldzz6k1BHdhuKvAtMRX7h5kJSMHESMHLC",
              "slots": [
                19,
                12
              ]
            }
          }
        ],
        "hash": "ooNDmvAvL7v2XVUTWX2KZUJqJah3XVZocqm1BRoWpWAq7JJspVB",
        "protocol": "PsDELPH1Kxsxt8f9eWbxQeRxkjfbxoqM52jvs5Y5fBxWWh4ifpo",
        "signature": "sigSNxkAUm3SapEffmBWRWTbzRPsrUtnAGdrocdqnL6UonRHo9PeNTL1KYoBZZEDT3s1qZMSBDNDsBihdXFzWrp4ida8KSUH"
      },
      {
        "branch": "BMAsfFSgKeTsLNN2pbYEn9ioUe1i2M6pEBrN2K5QEzsWJn8B4nN",
        "chain_id": "NetXdQprcVkpaWU",
        "contents": [
          {
            "kind": "endorsement",
            "level": 1222178,
            "metadata": {
              "balance_updates": [
                {
                  "change": "-64000000",
                  "contract": "tz1eewjYhPoR4o1x9pWgNtCU1GUAkp9Qb76q",
                  "kind": "contract"
                },
                {
                  "category": "deposits",
                  "change": "64000000",
                  "cycle": 298,
                  "delegate": "tz1eewjYhPoR4o1x9pWgNtCU1GUAkp9Qb76q",
                  "kind": "freezer"
                },
                {
                  "category": "rewards",
                  "change": "1250000",
                  "cycle": 298,
                  "delegate": "tz1eewjYhPoR4o1x9pWgNtCU1GUAkp9Qb76q",
                  "kind": "freezer"
                }
              ],
              "delegate": "tz1eewjYhPoR4o1x9pWgNtCU1GUAkp9Qb76q",
              "slots": [
                10
              ]
            }
          }
        ],
        "hash": "opME1iskHsKFSMQHYbWwwNtMbtnFgY9Lyu5afEXVg4r7kD2AiNG",
        "protocol": "PsDELPH1Kxsxt8f9eWbxQeRxkjfbxoqM52jvs5Y5fBxWWh4ifpo",
        "signature": "sigvL1vrpQULMqiErDNQjUpKY2VgTj8h1Ks3TXVnSLMipJAYRsWSXkdSqShdCH5eYQdT4oFzu7toAEDW2Qq7KAjZPotwSENQ"
      },
      {
        "branch": "BMAsfFSgKeTsLNN2pbYEn9ioUe1i2M6pEBrN2K5QEzsWJn8B4nN",
        "chain_id": "NetXdQprcVkpaWU",
        "contents": [
          {
            "kind": "endorsement",
            "level": 1222178,
            "metadata": {
              "balance_updates": [
                {
                  "change": "-64000000",
                  "contract": "tz1beersuEDv8Z7ngQ825xfbaJNS2EhXnyHR",
                  "kind": "contract"
                },
                {
                  "category": "deposits",
                  "change": "64000000",
                  "cycle": 298,
                  "delegate": "tz1beersuEDv8Z7ngQ825xfbaJNS2EhXnyHR",
                  "kind": "freezer"
                },
                {
                  "category": "rewards",
                  "change": "1250000",
                  "cycle": 298,
                  "delegate": "tz1beersuEDv8Z7ngQ825xfbaJNS2EhXnyHR",
                  "kind": "freezer"
                }
              ],
              "delegate": "tz1beersuEDv8Z7ngQ825xfbaJNS2EhXnyHR",
              "slots": [
                31
              ]
            }
          }
        ],
        "hash": "ooDP91EohA2KwwksUe3yP7r3CdA3hucWT2ZcTXpkicfhStJh3Dz",
        "protocol": "PsDELPH1Kxsxt8f9eWbxQeRxkjfbxoqM52jvs5Y5fBxWWh4ifpo",
        "signature": "sigVBaXM5ZrzSJA48YkU2D9NsCbXUzH8daD1zFmeyqzMzqQ6GwwWKwsrnrNS7qqGDx5RKPjXn2ipuyhv4hbwhKXL4bU81Czz"
      },
      {
        "branch": "BMAsfFSgKeTsLNN2pbYEn9ioUe1i2M6pEBrN2K5QEzsWJn8B4nN",
        "chain_id": "NetXdQprcVkpaWU",
        "contents": [
          {
            "kind": "endorsement",
            "level": 1222178,
            "metadata": {
              "balance_updates": [
                {
                  "change": "-64000000",
                  "contract": "tz1MXFrtZoaXckE41bjUCSjAjAap3AFDSr3N",
                  "kind": "contract"
                },
                {
                  "category": "deposits",
                  "change": "64000000",
                  "cycle": 298,
                  "delegate": "tz1MXFrtZoaXckE41bjUCSjAjAap3AFDSr3N",
                  "kind": "freezer"
                },
                {
                  "category": "rewards",
                  "change": "1250000",
                  "cycle": 298,
                  "delegate": "tz1MXFrtZoaXckE41bjUCSjAjAap3AFDSr3N",
                  "kind": "freezer"
                }
              ],
              "delegate": "tz1MXFrtZoaXckE41bjUCSjAjAap3AFDSr3N",
              "slots": [
                7
              ]
            }
          }
        ],
        "hash": "onpESd98Q1XfomxcRc7zfvqnv2pKrnzmgdd3Nd92N5cBx149qpQ",
        "protocol": "PsDELPH1Kxsxt8f9eWbxQeRxkjfbxoqM52jvs5Y5fBxWWh4ifpo",
        "signature": "sigvUjHgVmKuWFWKx9HDdmu95VF7Tjc3yKDH8eBk8LwAcsuAZ5xqzGSoMLfHRqtyguATHuGWxjtCzeNGhmvq3ZmiYZ6vwrXL"
      },
      {
        "branch": "BMAsfFSgKeTsLNN2pbYEn9ioUe1i2M6pEBrN2K5QEzsWJn8B4nN",
        "chain_id": "NetXdQprcVkpaWU",
        "contents": [
          {
            "kind": "endorsement",
            "level": 1222178,
            "metadata": {
              "balance_updates": [
                {
                  "change": "-64000000",
                  "contract": "tz3adcvQaKXTCg12zbninqo3q8ptKKtDFTLv",
                  "kind": "contract"
                },
                {
                  "category": "deposits",
                  "change": "64000000",
                  "cycle": 298,
                  "delegate": "tz3adcvQaKXTCg12zbninqo3q8ptKKtDFTLv",
                  "kind": "freezer"
                },
                {
                  "category": "rewards",
                  "change": "1250000",
                  "cycle": 298,
                  "delegate": "tz3adcvQaKXTCg12zbninqo3q8ptKKtDFTLv",
                  "kind": "freezer"
                }
              ],
              "delegate": "tz3adcvQaKXTCg12zbninqo3q8ptKKtDFTLv",
              "slots": [
                18
              ]
            }
          }
        ],
        "hash": "ooUSUya5SmJ1YbQgPDmtVKoXDUYXteedNppKMUbVUxeL4T7a4Hm",
        "protocol": "PsDELPH1Kxsxt8f9eWbxQeRxkjfbxoqM52jvs5Y5fBxWWh4ifpo",
        "signature": "sigWxz82KCyANoaXQKG1wSt2dZDFCCJ1pJtXsTN8yG3okZfr1mF3zzyQrGwkd8WbzgTUhcr324sa5s3Fb4nyx5GuRJauoDx7"
      },
      {
        "branch": "BMAsfFSgKeTsLNN2pbYEn9ioUe1i2M6pEBrN2K5QEzsWJn8B4nN",
        "chain_id": "NetXdQprcVkpaWU",
        "contents": [
          {
            "kind": "endorsement",
            "level": 1222178,
            "metadata": {
              "balance_updates": [
                {
                  "change": "-64000000",
                  "contract": "tz1S8MNvuFEUsWgjHvi3AxibRBf388NhT1q2",
                  "kind": "contract"
                },
                {
                  "category": "deposits",
                  "change": "64000000",
                  "cycle": 298,
                  "delegate": "tz1S8MNvuFEUsWgjHvi3AxibRBf388NhT1q2",
                  "kind": "freezer"
                },
                {
                  "category": "rewards",
                  "change": "1250000",
                  "cycle": 298,
                  "delegate": "tz1S8MNvuFEUsWgjHvi3AxibRBf388NhT1q2",
                  "kind": "freezer"
                }
              ],
              "delegate": "tz1S8MNvuFEUsWgjHvi3AxibRBf388NhT1q2",
              "slots": [
                1
              ]
            }
          }
        ],
        "hash": "opHw5qrGCykQWETWV5gaXyeRsu8Y5YajCexwyDE1TDDXjg9H4DR",
        "protocol": "PsDELPH1Kxsxt8f9eWbxQeRxkjfbxoqM52jvs5Y5fBxWWh4ifpo",
        "signature": "sigrVt5Mk8Bs2wtJTxRz3jRvUfQSfNe9i5Mx5mW2x9PrN67Pk7amzWa1J8ZJz7BRz5zHAh656wsGyFtgeCZkwG8ymdKyPsx6"
      }
    ],
    [],
    [],
    [
      {
        "branch": "BLzPR6VMJmVfEmft6UkxfuTRgXVPYoMFg9qUxerKRMN5pCGhy8K",
        "chain_id": "NetXdQprcVkpaWU",
        "contents": [
          {
            "amount": "0",
            "counter": "5927112",
            "destination": "KT19kgnqC5VWoxktLRdRUERbyUPku9YioE8W",
            "fee": "824",
            "gas_limit": "5104",
            "kind": "transaction",
            "metadata": {
              "balance_updates": [
                {
                  "change": "-824",
                  "contract": "tz1c5wM9826YcUNQ8a17z9eUYpKQ3oW3zfmJ",
                  "kind": "contract"
                },
                {
                  "category": "fees",
                  "change": "824",
                  "cycle": 298,
                  "delegate": "tz1MXFrtZoaXckE41bjUCSjAjAap3AFDSr3N",
                  "kind": "freezer"
                }
              ],
              "operation_result": {
                "consumed_gas": "4904",
                "consumed_milligas": "4903559",
                "status": "applied",
                "storage": {
                  "args": [
                    {
                      "args": [
                        {
                          "int": "1605788760"
                        },
                        {
                          "args": [
                            {
                              "int": "208"
                            },
                            {
                              "args": [
                                {
                                  "int": "91"
                                },
                                {
                                  "int": "189"
                                }
                              ],
                              "prim": "Pair"
                            }
                          ],
                          "prim": "Pair"
                        }
                      ],
                      "prim": "Pair"
                    },
                    {
                      "bytes": "0000b4685dc0a9a5cc28942065288413ce5bea2f76a0"
                    }
                  ],
                  "prim": "Pair"
                },
                "storage_size": "621"
              }
            },
            "parameters": {
              "entrypoint": "update_value",
              "value": {
                "args": [
                  {
                    "string": "2020-11-19T12:26:00Z"
                  },
                  {
                    "args": [
                      {
                        "int": "208"
                      },
                      {
                        "args": [
                          {
                            "int": "91"
                          },
                          {
                            "int": "189"
                          }
                        ],
                        "prim": "Pair"
                      }
                    ],
                    "prim": "Pair"
                  }
                ],
                "prim": "Pair"
              }
            },
            "source": "tz1c5wM9826YcUNQ8a17z9eUYpKQ3oW3zfmJ",
            "storage_limit": "0"
          }
        ],
        "hash": "onyBKq6DBSCoJfc5H9jzD4uDJJnihUHZGnQXJyHT8Qg5yAXcsJf",
        "protocol": "PsDELPH1Kxsxt8f9eWbxQeRxkjfbxoqM52jvs5Y5fBxWWh4ifpo",
        "signature": "sigUn4Qh2TzA6md37gaXrWaKxhQha4YTJvAJNfZrARGV34w2xMUVJduk9f5BVyGHp15Uurx1PHUnofW9AzPnQZXVdcxcLQy7"
      }
    ]
  ],
  "protocol": "PsDELPH1Kxsxt8f9eWbxQeRxkjfbxoqM52jvs5Y5fBxWWh4ifpo"
}
