{
  "chain_id": "NetXgtSLGNJvNye",
  "hash": "BKiHLmJnAX1eF5GLFWqn3hCNPVi93bHuqi3fqJsu44HmtGi3dQ7",
  "header": {
    "context": "CoWQYYyR7TdpwbbQg89u24nnQR4pqGVw92Fz7t59fG3EibZpn1Eh",
    "fitness": [
      "00",
      "0000000000f7b4ae"
    ],
    "level": 542306,
    "operations_hash": "LLoaJyEWUsiZjFxqUpqe3KdpMKk5xeFLeoND6CpRUejtJtpFYyWz5",
    "predecessor": "BMZPLPe4ag4BBc2uTnzvwQGNG7giZBd9BjnwZapcsfYvUC6Pmre",
    "priority": 0,
    "proof_of_work_nonce": "000000030e553f26",
    "proto": 2,
    "signature": "siguE1HnwKTTn1aEmjAZUyGnhaCeC6uvWoMPyQfWJBgeKZ4CUJH8dBqifp72jtF4xQ89jqr3NSTX2qqTReohHGeot4tENbvE",
    "timestamp": "2019-08-01T23:09:53Z",
    "validation_pass": 4
  },
  "metadata": {
    "baker": "tz3gN8NTLNLJg5KRsUU47NHNVHbdhcFXjjaB",
    "balance_updates": [
      {
        "change": "-512000000",
        "contract": "tz3gN8NTLNLJg5KRsUU47NHNVHbdhcFXjjaB",
        "kind": "contract"
      },
      {
        "category": "deposits",
        "change": "512000000",
        "cycle": 264,
        "delegate": "tz3gN8NTLNLJg5KRsUU47NHNVHbdhcFXjjaB",
        "kind": "freezer"
      },
      {
        "category": "rewards",
        "change": "16000000",
        "cycle": 264,
        "delegate": "tz3gN8NTLNLJg5KRsUU47NHNVHbdhcFXjjaB",
        "kind": "freezer"
      }
    ],
    "consumed_gas": "81600",
    "deactivated": [],
    "level": {
      "cycle": 264,
      "cycle_position": 1633,
      "expected_commitment": false,
      "level": 542306,
      "level_position": 542305,
      "voting_period": 66,
      "voting_period_position": 1633
    },
    "max_block_header_length": 238,
    "max_operation_data_length": 16384,
    "max_operation_list_length": [
      {
        "max_op": 32,
        "max_size": 32768
      },
      {
        "max_size": 32768
      },
      {
        "max_op": 132,
        "max_size": 135168
      },
      {
        "max_size": 524288
      }
    ],
    "max_operations_ttl": 60,
    "next_protocol": "Pt24m4xiPbLDhVgVfABUjirbmda3yohdN82Sp9FeuAXJ4eV9otd",
    "nonce_hash": null,
    "protocol": "Pt24m4xiPbLDhVgVfABUjirbmda3yohdN82Sp9FeuAXJ4eV9otd",
    "test_chain_status": {
      "status": "not_running"
    },
    "voting_period_kind": "proposal"
  },
  "operations": [
    [
      {
        "branch": "BMZPLPe4ag4BBc2uTnzvwQGNG7giZBd9BjnwZapcsfYvUC6Pmre",
        "chain_id": "NetXgtSLGNJvNye",
        "contents": [
          {
            "kind": "endorsement",
            "level": 542305,
            "metadata": {
              "balance_updates": [
                {
                  "change": "-256000000",
                  "contract": "tz3NdTPb3Ax2rVW2Kq9QEdzfYFkRwhrQRPhX",
                  "kind": "contract"
                },
                {
                  "category": "deposits",
                  "change": "256000000",
                  "cycle": 264,
                  "delegate": "tz3NdTPb3Ax2rVW2Kq9QEdzfYFkRwhrQRPhX",
                  "kind": "freezer"
                },
                {
                  "category": "rewards",
                  "change": "8000000",
                  "cycle": 264,
                  "delegate": "tz3NdTPb3Ax2rVW2Kq9QEdzfYFkRwhrQRPhX",
                  "kind": "freezer"
                }
              ],
              "delegate": "tz3NdTPb3Ax2rVW2Kq9QEdzfYFkRwhrQRPhX",
              "slots": [
                27,
                26,
                20,
                9
              ]
            }
          }
        ],
        "hash": "opDBMnxcDGq2qZQt8rGyNvWiRkU4MtXCzXQgy4jfSVMcYBpErac",
        "protocol": "Pt24m4xiPbLDhVgVfABUjirbmda3yohdN82Sp9FeuAXJ4eV9otd",
        "signature": "sigge9oF6exD9MSMhW8kwvVp1QhZdSqiMwEcTiXCvTaxMqFbmKB8hw3KpGohBUPUxXhbX6S1gWdKyJM3hHvA5zbFdtnwQPCQ"
      },
      {
        "branch": "BMZPLPe4ag4BBc2uTnzvwQGNG7giZBd9BjnwZapcsfYvUC6Pmre",
        "chain_id": "NetXgtSLGNJvNye",
        "contents": [
          {
            "kind": "endorsement",
            "level": 542305,
            "metadata": {
              "balance_updates": [
                {
                  "change": "-128000000",
                  "contract": "tz3MAKqZKipCPnRqpTZrQS5t8P7BtkAfF9hb",
                  "kind": "contract"
                },
                {
                  "category": "deposits",
                  "change": "128000000",
                  "cycle": 264,
                  "delegate": "tz3MAKqZKipCPnRqpTZrQS5t8P7BtkAfF9hb",
                  "kind": "freezer"
                },
                {
                  "category": "rewards",
                  "change": "4000000",
                  "cycle": 264,
                  "delegate": "tz3MAKqZKipCPnRqpTZrQS5t8P7BtkAfF9hb",
                  "kind": "freezer"
                }
              ],
              "delegate": "tz3MAKqZKipCPnRqpTZrQS5t8P7BtkAfF9hb",
              "slots": [
                25,
                4
              ]
            }
          }
        ],
        "hash": "ooBctwzr4vmYmTpQWKe9cHSAawPDRKr6iZhWrrHEZtVyoSf3jpy",
        "protocol": "Pt24m4xiPbLDhVgVfABUjirbmda3yohdN82Sp9FeuAXJ4eV9otd",
        "signature": "sigYv3JRtbEnLPptNTnDPHJgTSBJggpCr9X91ag8aayHFWdm9ohcZvsymxiQBjEi4yyw1CT2Te2Ydb5sa5VPTYY2PGRMHMj7"
      },
      {
        "branch": "BMZPLPe4ag4BBc2uTnzvwQGNG7giZBd9BjnwZapcsfYvUC6Pmre",
        "chain_id": "NetXgtSLGNJvNye",
        "contents": [
          {
            "kind": "endorsement",
            "level": 542305,
            "metadata": {
              "balance_updates": [
                {
                  "change": "-640000000",
                  "contract": "tz3WXYtyDUNL91qfiCJtVUX746QpNv5i5ve5",
                  "kind": "contract"
                },
                {
                  "category": "deposits",
                  "change": "640000000",
                  "cycle": 264,
                  "delegate": "tz3WXYtyDUNL91qfiCJtVUX746QpNv5i5ve5",
                  "kind": "freezer"
                },
                {
                  "category": "rewards",
                  "change": "20000000",
                  "cycle": 264,
                  "delegate": "tz3WXYtyDUNL91qfiCJtVUX746QpNv5i5ve5",
                  "kind": "freezer"
                }
              ],
              "delegate": "tz3WXYtyDUNL91qfiCJtVUX746QpNv5i5ve5",
              "slots": [
                31,
                30,
                23,
                16,
                15,
                14,
                13,
                12,
                2,
                0
              ]
            }
          }
        ],
        "hash": "oo6WotUZBLPs4GXTU41erui84nEX9BHxL9TAyg44fAY8T6ypNcp",
        "protocol": "Pt24m4xiPbLDhVgVfABUjirbmda3yohdN82Sp9FeuAXJ4eV9otd",
        "signature": "sigioeWeZBRwe9xmk8sz39o2GBFpm8EYg2w5GJSV8hprWrqxp9Z7RAdpEsT1ns2t2kxA2VyqsSR5zgKwWbd3cpMJ3jk84VuU"
      },
      {
        "branch": "BMZPLPe4ag4BBc2uTnzvwQGNG7giZBd9BjnwZapcsfYvUC6Pmre",
        "chain_id": "NetXgtSLGNJvNye",
        "contents": [
          {
            "kind": "endorsement",
            "level": 542305,
            "metadata": {
              "balance_updates": [
                {
                  "change": "-64000000",
                  "contract": "tz1fyYJwgV1ozj6RyjtU1hLTBeoqQvQmRjVv",
                  "kind": "contract"
                },
                {
                  "category": "deposits",
                  "change": "64000000",
                  "cycle": 264,
                  "delegate": "tz1fyYJwgV1ozj6RyjtU1hLTBeoqQvQmRjVv",
                  "kind": "freezer"
                },
                {
                  "category": "rewards",
                  "change": "2000000",
                  "cycle": 264,
                  "delegate": "tz1fyYJwgV1ozj6RyjtU1hLTBeoqQvQmRjVv",
                  "kind": "freezer"
                }
              ],
              "delegate": "tz1fyYJwgV1ozj6RyjtU1hLTBeoqQvQmRjVv",
              "slots": [
                7
              ]
            }
          }
        ],
        "hash": "oomoQW7eXDUdeDAncvX9TjH1Z2f9wkWoVa9Ganueg266f798zaj",
        "protocol": "Pt24m4xiPbLDhVgVfABUjirbmda3yohdN82Sp9FeuAXJ4eV9otd",
        "signature": "sigXi9m7zMUw3qQ9aknat6e5FedBwMcUKCrMtPKvCvdPRNEP8kZDW1FJDdHq1AcRaURgJ8rkrTVFBn3mRB1wiYeiTysFz9DY"
      },
      {
        "branch": "BMZPLPe4ag4BBc2uTnzvwQGNG7giZBd9BjnwZapcsfYvUC6Pmre",
        "chain_id": "NetXgtSLGNJvNye",
        "contents": [
          {
            "kind": "endorsement",
            "level": 542305,
            "metadata": {
              "balance_updates": [
                {
                  "change": "-704000000",
                  "contract": "tz3gN8NTLNLJg5KRsUU47NHNVHbdhcFXjjaB",
                  "kind": "contract"
                },
                {
                  "category": "deposits",
                  "change": "704000000",
                  "cycle": 264,
                  "delegate": "tz3gN8NTLNLJg5KRsUU47NHNVHbdhcFXjjaB",
                  "kind": "freezer"
                },
                {
                  "category": "rewards",
                  "change": "22000000",
                  "cycle": 264,
                  "delegate": "tz3gN8NTLNLJg5KRsUU47NHNVHbdhcFXjjaB",
                  "kind": "freezer"
                }
              ],
              "delegate": "tz3gN8NTLNLJg5KRsUU47NHNVHbdhcFXjjaB",
              "slots": [
                28,
                24,
                22,
                21,
                18,
                11,
                10,
                6,
                5,
                3,
                1
              ]
            }
          }
        ],
        "hash": "opHY7BGwydGReucoe8MMt4kBLSuetME6WSnT3HxF85JuHX8ciN3",
        "protocol": "Pt24m4xiPbLDhVgVfABUjirbmda3yohdN82Sp9FeuAXJ4eV9otd",
        "signature": "sigjUyybgRRW12EpPDSjn1TJiozHVeUVyuwTtgGAMtLrN1moWXWyPtc8Z9mDYZE3p2h8GDDU3i7TaimEANbs8broJt7M3Rgt"
      },
      {
        "branch": "BMZPLPe4ag4BBc2uTnzvwQGNG7giZBd9BjnwZapcsfYvUC6Pmre",
        "chain_id": "NetXgtSLGNJvNye",
        "contents": [
          {
            "kind": "endorsement",
            "level": 542305,
            "metadata": {
              "balance_updates": [
                {
                  "change": "-128000000",
                  "contract": "tz1aWXP237BLwNHJcCD4b3DutCevhqq2T1Z9",
                  "kind": "contract"
                },
                {
                  "category": "deposits",
                  "change": "128000000",
                  "cycle": 264,
                  "delegate": "tz1aWXP237BLwNHJcCD4b3DutCevhqq2T1Z9",
                  "kind": "freezer"
                },
                {
                  "category": "rewards",
                  "change": "4000000",
                  "cycle": 264,
                  "delegate": "tz1aWXP237BLwNHJcCD4b3DutCevhqq2T1Z9",
                  "kind": "freezer"
                }
              ],
              "delegate": "tz1aWXP237BLwNHJcCD4b3DutCevhqq2T1Z9",
              "slots": [
                19,
                17
              ]
            }
          }
        ],
        "hash": "ooDsS9XGvhS1MAADMwwNFXGLRAWn5AfSRQJ8bDeQZXSYnCmwevA",
        "protocol": "Pt24m4xiPbLDhVgVfABUjirbmda3yohdN82Sp9FeuAXJ4eV9otd",
        "signature": "sigWrvQce7PYnPgXHHDpvQFTkeuQu62kdGdvQmkVQiEFAy5RLygGa8PYxYZ6ktTYEyuVvCUV6cXGkp4tB5agP7tn2rzLFd2t"
      }
    ],
    [],
    [],
    [
      {
        "branch": "BMZPLPe4ag4BBc2uTnzvwQGNG7giZBd9BjnwZapcsfYvUC6Pmre",
        "chain_id": "NetXgtSLGNJvNye",
        "contents": [
          {
            "amount": "2640984",
            "counter": "118590",
            "destination": "tz1hjqEzmmyj8pNErXRx9kUgWY7xur8AT83p",
            "fee": "1420",
            "gas_limit": "10500",
            "kind": "transaction",
            "metadata": {
              "balance_updates": [
                {
                  "change": "-1420",
                  "contract": "tz1TkkVNKUXhbrAi7PUpmejhAQcYm6TwjeMD",
                  "kind": "contract"
                },
                {
                  "category": "fees",
                  "change": "1420",
                  "cycle": 264,
                  "delegate": "tz3gN8NTLNLJg5KRsUU47NHNVHbdhcFXjjaB",
                  "kind": "freezer"
                }
              ],
              "operation_result": {
                "balance_updates": [
                  {
                    "change": "-2640984",
                    "contract": "tz1TkkVNKUXhbrAi7PUpmejhAQcYm6TwjeMD",
                    "kind": "contract"
                  },
                  {
                    "change": "2640984",
                    "contract": "tz1hjqEzmmyj8pNErXRx9kUgWY7xur8AT83p",
                    "kind": "contract"
                  }
                ],
                "consumed_gas": "10200",
                "status": "applied"
              }
            },
            "source": "tz1TkkVNKUXhbrAi7PUpmejhAQcYm6TwjeMD",
            "storage_limit": "0"
          }
        ],
        "hash": "oowZXmneijfiazkqjwt75RhUNmGtELQmDafJCjZyAVeiAzCwwbm",
        "protocol": "Pt24m4xiPbLDhVgVfABUjirbmda3yohdN82Sp9FeuAXJ4eV9otd",
        "signature": "sigXmLbhiwb5LBVUhL8eXRbLSMwuo4LVyGz1TXtEhWL1HtbS9AMmuMGQkVqERs3oRR3GYxcq7YrTNhfkT1yFULRcWkwQ7xHB"
      },
      {
        "branch": "BLWhMw4TKXYU27HJD4qZF6Xnz2MMPD4ynhjW2M18tMHzfu2o5XX",
        "chain_id": "NetXgtSLGNJvNye",
        "contents": [
          {
            "amount": "1849121",
            "counter": "119445",
            "destination": "tz1Ucmx4f9pGeofQuCCY2cHvDKa2ssqT7VEF",
            "fee": "1420",
            "gas_limit": "10600",
            "kind": "transaction",
            "metadata": {
              "balance_updates": [
                {
                  "change": "-1420",
                  "contract": "tz1iK9VVZ2m1AyiY9QCjkJ32RVbGQ6tBtoHU",
                  "kind": "contract"
                },
                {
                  "category": "fees",
                  "change": "1420",
                  "cycle": 264,
                  "delegate": "tz3gN8NTLNLJg5KRsUU47NHNVHbdhcFXjjaB",
                  "kind": "freezer"
                }
              ],
              "operation_result": {
                "balance_updates": [
                  {
                    "change": "-1849121",
                    "contract": "tz1iK9VVZ2m1AyiY9QCjkJ32RVbGQ6tBtoHU",
                    "kind": "contract"
                  },
                  {
                    "change": "1849121",
                    "contract": "tz1Ucmx4f9pGeofQuCCY2cHvDKa2ssqT7VEF",
                    "kind": "contract"
                  }
                ],
                "consumed_gas": "10200",
                "status": "applied"
              }
            },
            "source": "tz1iK9VVZ2m1AyiY9QCjkJ32RVbGQ6tBtoHU",
            "storage_limit": "300"
          }
        ],
        "hash": "oofKMzjkHRu6X9GwhZKBcEjcnQ2LMM2LdfdXGA7XYHW4GM9ePGW",
        "protocol": "Pt24m4xiPbLDhVgVfABUjirbmda3yohdN82Sp9FeuAXJ4eV9otd",
        "signature": "siganHZsQfqJQvzgkqfkwPcVBx9a2qXhc4X5Fopr5oUFfWw5pfsXFydooa7pJAyDAyvm6TzJ2UWcmhQnKhnvYqqdhd8rAqbw"
      },
      {
        "branch": "BLWhMw4TKXYU27HJD4qZF6Xnz2MMPD4ynhjW2M18tMHzfu2o5XX",
        "chain_id": "NetXgtSLGNJvNye",
        "contents": [
          {
            "amount": "1672159",
            "counter": "188375",
            "destination": "tz1Wuua6s88NN3jnbixiKhrywqmM6kjeTLYV",
            "fee": "1420",
            "gas_limit": "10600",
            "kind": "transaction",
            "metadata": {
              "balance_updates": [
                {
                  "change": "-1420",
                  "contract": "tz1boMesW5oaZeHyE1woSctLaEVmGZ8dHwAh",
                  "kind": "contract"
                },
                {
                  "category": "fees",
                  "change": "1420",
                  "cycle": 264,
                  "delegate": "tz3gN8NTLNLJg5KRsUU47NHNVHbdhcFXjjaB",
                  "kind": "freezer"
                }
              ],
              "operation_result": {
                "balance_updates": [
                  {
                    "change": "-1672159",
                    "contract": "tz1boMesW5oaZeHyE1woSctLaEVmGZ8dHwAh",
                    "kind": "contract"
                  },
                  {
                    "change": "1672159",
                    "contract": "tz1Wuua6s88NN3jnbixiKhrywqmM6kjeTLYV",
                    "kind": "contract"
                  }
                ],
                "consumed_gas": "10200",
                "status": "applied"
              }
            },
            "source": "tz1boMesW5oaZeHyE1woSctLaEVmGZ8dHwAh",
            "storage_limit": "300"
          }
        ],
        "hash": "onhAKdwPnNUcR3qL3hMYLuUEQ184iYRJ8CsfpyzvdeXzGrx6EHD",
        "protocol": "Pt24m4xiPbLDhVgVfABUjirbmda3yohdN82Sp9FeuAXJ4eV9otd",
        "signature": "sigc6XJiufFffvvsiYqNXSWV7BRXWoPxVK7hXrrgRSmCYZN3GV5k3D4WDe3MTjhN1qM63THrYcUjU4Cbng6Jhq9eYQc7rmb7"
      },
      {
        "branch": "BLWhMw4TKXYU27HJD4qZF6Xnz2MMPD4ynhjW2M18tMHzfu2o5XX",
        "chain_id": "NetXgtSLGNJvNye",
        "contents": [
          {
            "amount": "2294756",
            "counter": "188586",
            "destination": "tz1Ucmx4f9pGeofQuCCY2cHvDKa2ssqT7VEF",
            "fee": "1420",
            "gas_limit": "10600",
            "kind": "transaction",
            "metadata": {
              "balance_updates": [
                {
                  "change": "-1420",
                  "contract": "tz1NtBuXQfXZPiiNAzSGttrcrX9gbKbCXRgz",
                  "kind": "contract"
                },
                {
                  "category": "fees",
                  "change": "1420",
                  "cycle": 264,
                  "delegate": "tz3gN8NTLNLJg5KRsUU47NHNVHbdhcFXjjaB",
                  "kind": "freezer"
                }
              ],
              "operation_result": {
                "balance_updates": [
                  {
                    "change": "-2294756",
                    "contract": "tz1NtBuXQfXZPiiNAzSGttrcrX9gbKbCXRgz",
                    "kind": "contract"
                  },
                  {
                    "change": "2294756",
                    "contract": "tz1Ucmx4f9pGeofQuCCY2cHvDKa2ssqT7VEF",
                    "kind": "contract"
                  }
                ],
                "consumed_gas": "10200",
                "status": "applied"
              }
            },
            "source": "tz1NtBuXQfXZPiiNAzSGttrcrX9gbKbCXRgz",
            "storage_limit": "300"
          }
        ],
        "hash": "ooM8cs95EpDu4adThoNuykUrFA8jgaKifora4j8wwBFg1DK2wNZ",
        "protocol": "Pt24m4xiPbLDhVgVfABUjirbmda3yohdN82Sp9FeuAXJ4eV9otd",
        "signature": "sigpyxda7MFoffwTpfVTcopCVC9GvZDJoK6MbYUHmYksUqV6dURTusZuHLFGRU72uN4Zy8Qz72YSKw1avrM12rmRmvPckPFY"
      },
      {
        "branch": "BLWhMw4TKXYU27HJD4qZF6Xnz2MMPD4ynhjW2M18tMHzfu2o5XX",
        "chain_id": "NetXgtSLGNJvNye",
        "contents": [
          {
            "amount": "1150924",
            "counter": "188957",
            "destination": "tz1W1nzxwQfe3jpaXakCi5JVZ4i3z1D1tBnB",
            "fee": "1420",
            "gas_limit": "10600",
            "kind": "transaction",
            "metadata": {
              "balance_updates": [
                {
                  "change": "-1420",
                  "contract": "tz1RKbhP9rzCAWiBNcn7wPwATRvW4te2PxfR",
                  "kind": "contract"
                },
                {
                  "category": "fees",
                  "change": "1420",
                  "cycle": 264,
                  "delegate": "tz3gN8NTLNLJg5KRsUU47NHNVHbdhcFXjjaB",
                  "kind": "freezer"
                }
              ],
              "operation_result": {
                "balance_updates": [
                  {
                    "change": "-1150924",
                    "contract": "tz1RKbhP9rzCAWiBNcn7wPwATRvW4te2PxfR",
                    "kind": "contract"
                  },
                  {
                    "change": "1150924",
                    "contract": "tz1W1nzxwQfe3jpaXakCi5JVZ4i3z1D1tBnB",
                    "kind": "contract"
                  }
                ],
                "consumed_gas": "10200",
                "status": "applied"
              }
            },
            "source": "tz1RKbhP9rzCAWiBNcn7wPwATRvW4te2PxfR",
            "storage_limit": "300"
          }
        ],
        "hash": "oowifAtAvVysv8KWVeS8VDXFuJGhUbwk4kSSLARuNfgVsbN4Ccj",
        "protocol": "Pt24m4xiPbLDhVgVfABUjirbmda3yohdN82Sp9FeuAXJ4eV9otd",
        "signature": "sigjcyUKcq4dvxnD8z1p5oujUbfAbfdZaCDUvLTUzkY48piJHSZYieS4mhxTj85LrxzrPRAPjhJ97acdUKVgfjVdim3VHFbJ"
      },
      {
        "branch": "BLuHnTb9fpjDiq7fSRJ61be8fziC6uXdbXycEfGzMnbm8tCkEH3",
        "chain_id": "NetXgtSLGNJvNye",
        "contents": [
          {
            "amount": "2601448",
            "counter": "189038",
            "destination": "tz1g4fHsgpu2mj82ygjFaQDzvrZ1TWkR6oby",
            "fee": "1420",
            "gas_limit": "10600",
            "kind": "transaction",
            "metadata": {
              "balance_updates": [
                {
                  "change": "-1420",
                  "contract": "tz1cDiDK1BVuaGh3KAkETSsXzPHPUKgt8M7d",
                  "kind": "contract"
                },
                {
                  "category": "fees",
                  "change": "1420",
                  "cycle": 264,
                  "delegate": "tz3gN8NTLNLJg5KRsUU47NHNVHbdhcFXjjaB",
                  "kind": "freezer"
                }
              ],
              "operation_result": {
                "balance_updates": [
                  {
                    "change": "-2601448",
                    "contract": "tz1cDiDK1BVuaGh3KAkETSsXzPHPUKgt8M7d",
                    "kind": "contract"
                  },
                  {
                    "change": "2601448",
                    "contract": "tz1g4fHsgpu2mj82ygjFaQDzvrZ1TWkR6oby",
                    "kind": "contract"
                  }
                ],
                "consumed_gas": "10200",
                "status": "applied"
              }
            },
            "source": "tz1cDiDK1BVuaGh3KAkETSsXzPHPUKgt8M7d",
            "storage_limit": "300"
          }
        ],
        "hash": "ooTGiCFQ3qUy7YCNKkku99SoSiTimZ7JYpFJzdwHViNPWDmuJZm",
        "protocol": "Pt24m4xiPbLDhVgVfABUjirbmda3yohdN82Sp9FeuAXJ4eV9otd",
        "signature": "sigi19qm2sfHSx2y71rUMDhLSTtJj6VceAC9rua1d3vXvK76zafGzK8JoeTQSBXsFbwzg6GT4BRonai5NqeuKczNgh2fYw6z"
      },
      {
        "branch": "BLuHnTb9fpjDiq7fSRJ61be8fziC6uXdbXycEfGzMnbm8tCkEH3",
        "chain_id": "NetXgtSLGNJvNye",
        "contents": [
          {
            "amount": "2052202",
            "counter": "189060",
            "destination": "tz1TpVem8uAsp3SjKK7EJSCmPph3gFYzourM",
            "fee": "1420",
            "gas_limit": "10600",
            "kind": "transaction",
            "metadata": {
              "balance_updates": [
                {
                  "change": "-1420",
                  "contract": "tz1ifgJHVZrCvg5vRGErD5RzmrkVP55YvnHa",
                  "kind": "contract"
                },
                {
                  "category": "fees",
                  "change": "1420",
                  "cycle": 264,
                  "delegate": "tz3gN8NTLNLJg5KRsUU47NHNVHbdhcFXjjaB",
                  "kind": "freezer"
                }
              ],
              "operation_result": {
                "balance_updates": [
                  {
                    "change": "-2052202",
                    "contract": "tz1ifgJHVZrCvg5vRGErD5RzmrkVP55YvnHa",
                    "kind": "contract"
                  },
                  {
                    "change": "2052202",
                    "contract": "tz1TpVem8uAsp3SjKK7EJSCmPph3gFYzourM",
                    "kind": "contract"
                  }
                ],
                "consumed_gas": "10200",
                "status": "applied"
              }
            },
            "source": "tz1ifgJHVZrCvg5vRGErD5RzmrkVP55YvnHa",
            "storage_limit": "300"
          }
        ],
        "hash": "opLyeBGLnTb1R51ivEh69uXCLgrzijuF8oeNPGBhRUCRiYAATdj",
        "protocol": "Pt24m4xiPbLDhVgVfABUjirbmda3yohdN82Sp9FeuAXJ4eV9otd",
        "signature": "sigSafczqXcYrrRvdFUxVAj4XKJPDbdnzZiJwHPfWEjyCgAiNeXPrj5fEaKUvHSSqK8APZWEtpr1d8vKaS9kxteu3RgvrTVG"
      },
      {
        "branch": "BLWhMw4TKXYU27HJD4qZF6Xnz2MMPD4ynhjW2M18tMHzfu2o5XX",
        "chain_id": "NetXgtSLGNJvNye",
        "contents": [
          {
            "amount": "1149460",
            "counter": "189065",
            "destination": "tz1g4fHsgpu2mj82ygjFaQDzvrZ1TWkR6oby",
            "fee": "1420",
            "gas_limit": "10600",
            "kind": "transaction",
            "metadata": {
              "balance_updates": [
                {
                  "change": "-1420",
                  "contract": "tz1LhMnVi4YR6EHTYAeuUeUy8s8Ayna7zkFf",
                  "kind": "contract"
                },
                {
                  "category": "fees",
                  "change": "1420",
                  "cycle": 264,
                  "delegate": "tz3gN8NTLNLJg5KRsUU47NHNVHbdhcFXjjaB",
                  "kind": "freezer"
                }
              ],
              "operation_result": {
                "balance_updates": [
                  {
                    "change": "-1149460",
                    "contract": "tz1LhMnVi4YR6EHTYAeuUeUy8s8Ayna7zkFf",
                    "kind": "contract"
                  },
                  {
                    "change": "1149460",
                    "contract": "tz1g4fHsgpu2mj82ygjFaQDzvrZ1TWkR6oby",
                    "kind": "contract"
                  }
                ],
                "consumed_gas": "10200",
                "status": "applied"
              }
            },
            "source": "tz1LhMnVi4YR6EHTYAeuUeUy8s8Ayna7zkFf",
            "storage_limit": "300"
          }
        ],
        "hash": "onrg3M9kf13aLccMksBjsBHcTnETt4ExS6ki8dCmzwqYstAmkeX",
        "protocol": "Pt24m4xiPbLDhVgVfABUjirbmda3yohdN82Sp9FeuAXJ4eV9otd",
        "signature": "sigdqPKRqJEspUGpfX8gP9cbHr2ob2ugykvqPHF8T4D9afoSQreKQPDLctLA9TS7FkkmXFnYyXeorB6Tybto4GXbNGn8pp94"
      }
    ]
  ],
  "protocol": "Pt24m4xiPbLDhVgVfABUjirbmda3yohdN82Sp9FeuAXJ4eV9otd"
}
